<?xml version="1.0" encoding="UTF-8" standalone="no"?>
<!-- Created with Inkscape (http://www.inkscape.org/) -->

<svg
   xmlns:dc="http://purl.org/dc/elements/1.1/"
   xmlns:cc="http://creativecommons.org/ns#"
   xmlns:rdf="http://www.w3.org/1999/02/22-rdf-syntax-ns#"
   xmlns:svg="http://www.w3.org/2000/svg"
   xmlns="http://www.w3.org/2000/svg"
   xmlns:sodipodi="http://sodipodi.sourceforge.net/DTD/sodipodi-0.dtd"
   xmlns:inkscape="http://www.inkscape.org/namespaces/inkscape"
   width="210mm"
   height="297mm"
   viewBox="0 0 744.09448819 1052.3622047"
   id="svg2"
   version="1.1"
   inkscape:version="0.91 r13725"
   sodipodi:docname="class-diagram2.svg"
   inkscape:export-filename="/home/dto/Desktop/class-diagram-raw.png"
   inkscape:export-xdpi="154.82001"
   inkscape:export-ydpi="154.82001">
  <defs
     id="defs4">
    <marker
       inkscape:stockid="EmptyDiamondLend"
       orient="auto"
       refY="0.0"
       refX="0.0"
       id="marker5090"
       style="overflow:visible"
       inkscape:isstock="true">
      <path
         id="path4958"
         d="M 0,-7.0710768 L -7.0710894,0 L 0,7.0710589 L 7.0710462,0 L 0,-7.0710768 z "
         style="fill-rule:evenodd;fill:#ffffff;stroke:#000000;stroke-width:1pt;stroke-opacity:1"
         transform="scale(0.8) translate(-7,0)" />
    </marker>
    <marker
       inkscape:stockid="DiamondMend"
       orient="auto"
       refY="0.0"
       refX="0.0"
       id="marker5171"
       style="overflow:visible"
       inkscape:isstock="true">
      <path
         id="path5173"
         d="M 0,-7.0710768 L -7.0710894,0 L 0,7.0710589 L 7.0710462,0 L 0,-7.0710768 z "
         style="fill-rule:evenodd;stroke:#000000;stroke-width:1pt;stroke-opacity:1;fill:#000000;fill-opacity:1"
         transform="scale(0.4) translate(-6.5,0)" />
    </marker>
    <marker
       inkscape:stockid="EmptyDiamondLend"
       orient="auto"
       refY="0.0"
       refX="0.0"
       id="marker4881"
       style="overflow:visible"
       inkscape:isstock="true">
      <path
         id="path4710"
         d="M 0,-7.0710768 L -7.0710894,0 L 0,7.0710589 L 7.0710462,0 L 0,-7.0710768 z "
         style="fill-rule:evenodd;fill:#ffffff;stroke:#000000;stroke-width:1pt;stroke-opacity:1"
         transform="scale(0.8) translate(-7,0)" />
    </marker>
    <marker
       inkscape:stockid="DiamondMend"
       orient="auto"
       refY="0.0"
       refX="0.0"
       id="marker4877"
       style="overflow:visible"
       inkscape:isstock="true">
      <path
         id="path4879"
         d="M 0,-7.0710768 L -7.0710894,0 L 0,7.0710589 L 7.0710462,0 L 0,-7.0710768 z "
         style="fill-rule:evenodd;stroke:#000000;stroke-width:1pt;stroke-opacity:1;fill:#000000;fill-opacity:1"
         transform="scale(0.4) translate(-6.5,0)" />
    </marker>
    <marker
       inkscape:stockid="DiamondMend"
       orient="auto"
       refY="0.0"
       refX="0.0"
       id="marker4848"
       style="overflow:visible"
       inkscape:isstock="true">
      <path
         id="path4686"
         d="M 0,-7.0710768 L -7.0710894,0 L 0,7.0710589 L 7.0710462,0 L 0,-7.0710768 z "
         style="fill-rule:evenodd;stroke:#000000;stroke-width:1pt;stroke-opacity:1;fill:#000000;fill-opacity:1"
         transform="scale(0.4) translate(-6.5,0)" />
    </marker>
    <marker
       inkscape:stockid="DiamondMstart"
       orient="auto"
       refY="0.0"
       refX="0.0"
       id="DiamondMstart"
       style="overflow:visible"
       inkscape:isstock="true">
      <path
         id="path4677"
         d="M 0,-7.0710768 L -7.0710894,0 L 0,7.0710589 L 7.0710462,0 L 0,-7.0710768 z "
         style="fill-rule:evenodd;stroke:#000000;stroke-width:1pt;stroke-opacity:1;fill:#000000;fill-opacity:1"
         transform="scale(0.4) translate(6.5,0)" />
    </marker>
    <marker
       inkscape:stockid="DiamondM"
       orient="auto"
       refY="0.0"
       refX="0.0"
       id="DiamondM"
       style="overflow:visible"
       inkscape:isstock="true">
      <path
         id="path4668"
         d="M 0,-7.0710768 L -7.0710894,0 L 0,7.0710589 L 7.0710462,0 L 0,-7.0710768 z "
         style="fill-rule:evenodd;stroke:#000000;stroke-width:1pt;stroke-opacity:1;fill:#000000;fill-opacity:1"
         transform="scale(0.4)" />
    </marker>
    <marker
       inkscape:isstock="true"
       style="overflow:visible"
       id="marker16625"
       refX="0.0"
       refY="0.0"
       orient="auto"
       inkscape:stockid="EmptyDiamondLend">
      <path
         transform="scale(0.8) translate(-7,0)"
         style="fill-rule:evenodd;fill:#ffffff;stroke:#000000;stroke-width:1pt;stroke-opacity:1"
         d="M 0,-7.0710768 L -7.0710894,0 L 0,7.0710589 L 7.0710462,0 L 0,-7.0710768 z "
         id="path16627" />
    </marker>
    <marker
       inkscape:stockid="EmptyDiamondLend"
       orient="auto"
       refY="0.0"
       refX="0.0"
       id="marker16621"
       style="overflow:visible"
       inkscape:isstock="true"
       inkscape:collect="always">
      <path
         id="path16623"
         d="M 0,-7.0710768 L -7.0710894,0 L 0,7.0710589 L 7.0710462,0 L 0,-7.0710768 z "
         style="fill-rule:evenodd;fill:#ffffff;stroke:#000000;stroke-width:1pt;stroke-opacity:1"
         transform="scale(0.8) translate(-7,0)" />
    </marker>
    <marker
       inkscape:isstock="true"
       style="overflow:visible"
       id="marker16617"
       refX="0.0"
       refY="0.0"
       orient="auto"
       inkscape:stockid="EmptyDiamondMend">
      <path
         transform="scale(0.4) translate(-6.5,0)"
         style="fill-rule:evenodd;fill:#ffffff;stroke:#000000;stroke-width:1pt;stroke-opacity:1"
         d="M 0,-7.0710768 L -7.0710894,0 L 0,7.0710589 L 7.0710462,0 L 0,-7.0710768 z "
         id="path16619" />
    </marker>
    <marker
       inkscape:isstock="true"
       style="overflow:visible"
       id="marker16611"
       refX="0.0"
       refY="0.0"
       orient="auto"
       inkscape:stockid="EmptyDiamondL">
      <path
         transform="scale(0.8)"
         style="fill-rule:evenodd;fill:#ffffff;stroke:#000000;stroke-width:1pt;stroke-opacity:1"
         d="M 0,-7.0710768 L -7.0710894,0 L 0,7.0710589 L 7.0710462,0 L 0,-7.0710768 z "
         id="path16613" />
    </marker>
    <marker
       inkscape:isstock="true"
       style="overflow:visible"
       id="marker16603"
       refX="0.0"
       refY="0.0"
       orient="auto"
       inkscape:stockid="DiamondMend">
      <path
         transform="scale(0.4) translate(-6.5,0)"
         style="fill-rule:evenodd;stroke:#000000;stroke-width:1pt;stroke-opacity:1;fill:#000000;fill-opacity:1"
         d="M 0,-7.0710768 L -7.0710894,0 L 0,7.0710589 L 7.0710462,0 L 0,-7.0710768 z "
         id="path16605" />
    </marker>
    <marker
       inkscape:isstock="true"
       style="overflow:visible"
       id="marker16599"
       refX="0.0"
       refY="0.0"
       orient="auto"
       inkscape:stockid="DiamondMend">
      <path
         transform="scale(0.4) translate(-6.5,0)"
         style="fill-rule:evenodd;stroke:#000000;stroke-width:1pt;stroke-opacity:1;fill:#000000;fill-opacity:1"
         d="M 0,-7.0710768 L -7.0710894,0 L 0,7.0710589 L 7.0710462,0 L 0,-7.0710768 z "
         id="path16601" />
    </marker>
    <marker
       inkscape:stockid="DiamondMend"
       orient="auto"
       refY="0.0"
       refX="0.0"
       id="marker16595"
       style="overflow:visible"
       inkscape:isstock="true"
       inkscape:collect="always">
      <path
         id="path16597"
         d="M 0,-7.0710768 L -7.0710894,0 L 0,7.0710589 L 7.0710462,0 L 0,-7.0710768 z "
         style="fill-rule:evenodd;stroke:#000000;stroke-width:1pt;stroke-opacity:1;fill:#000000;fill-opacity:1"
         transform="scale(0.4) translate(-6.5,0)" />
    </marker>
    <marker
       inkscape:stockid="DiamondMend"
       orient="auto"
       refY="0.0"
       refX="0.0"
       id="DiamondMend"
       style="overflow:visible"
       inkscape:isstock="true">
      <path
         id="path16359"
         d="M 0,-7.0710768 L -7.0710894,0 L 0,7.0710589 L 7.0710462,0 L 0,-7.0710768 z "
         style="fill-rule:evenodd;stroke:#000000;stroke-width:1pt;stroke-opacity:1;fill:#000000;fill-opacity:1"
         transform="scale(0.4) translate(-6.5,0)" />
    </marker>
    <marker
       inkscape:stockid="TriangleOutL"
       orient="auto"
       refY="0.0"
       refX="0.0"
       id="TriangleOutL"
       style="overflow:visible"
       inkscape:isstock="true">
      <path
         id="path16401"
         d="M 5.77,0.0 L -2.88,5.0 L -2.88,-5.0 L 5.77,0.0 z "
         style="fill-rule:evenodd;stroke:#000000;stroke-width:1pt;stroke-opacity:1;fill:#000000;fill-opacity:1"
         transform="scale(0.8)" />
    </marker>
    <marker
       inkscape:stockid="CurveOut"
       orient="auto"
       refY="0.0"
       refX="0.0"
       id="CurveOut"
       style="overflow:visible"
       inkscape:isstock="true">
      <path
         id="path16446"
         d="M -5.4129913,-5.0456926 C -2.6529913,-5.0456926 -0.41299131,-2.8056926 -0.41299131,-0.045692580 C -0.41299131,2.7143074 -2.6529913,4.9543074 -5.4129913,4.9543074"
         style="fill:none;fill-rule:evenodd;stroke:#000000;stroke-width:1pt;stroke-opacity:1"
         transform="scale(0.6)" />
    </marker>
    <marker
       inkscape:stockid="EmptyDiamondLend"
       orient="auto"
       refY="0.0"
       refX="0.0"
       id="marker16573"
       style="overflow:visible"
       inkscape:isstock="true">
      <path
         id="path16575"
         d="M 0,-7.0710768 L -7.0710894,0 L 0,7.0710589 L 7.0710462,0 L 0,-7.0710768 z "
         style="fill-rule:evenodd;fill:#ffffff;stroke:#000000;stroke-width:1pt;stroke-opacity:1"
         transform="scale(0.8) translate(-7,0)" />
    </marker>
    <marker
       inkscape:isstock="true"
       style="overflow:visible"
       id="marker16567"
       refX="0.0"
       refY="0.0"
       orient="auto"
       inkscape:stockid="EmptyTriangleOutL">
      <path
         transform="scale(0.8) translate(-6,0)"
         style="fill-rule:evenodd;fill:#ffffff;stroke:#000000;stroke-width:1pt;stroke-opacity:1"
         d="M 5.77,0.0 L -2.88,5.0 L -2.88,-5.0 L 5.77,0.0 z "
         id="path16569" />
    </marker>
    <marker
       inkscape:stockid="EmptyTriangleInL"
       orient="auto"
       refY="0.0"
       refX="0.0"
       id="EmptyTriangleInL"
       style="overflow:visible"
       inkscape:isstock="true">
      <path
         id="path16410"
         d="M 5.77,0.0 L -2.88,5.0 L -2.88,-5.0 L 5.77,0.0 z "
         style="fill-rule:evenodd;fill:#ffffff;stroke:#000000;stroke-width:1pt;stroke-opacity:1"
         transform="scale(-0.8) translate(-6,0)" />
    </marker>
    <marker
       inkscape:isstock="true"
       style="overflow:visible"
       id="marker16555"
       refX="0.0"
       refY="0.0"
       orient="auto"
       inkscape:stockid="EmptyDiamondLend">
      <path
         transform="scale(0.8) translate(-7,0)"
         style="fill-rule:evenodd;fill:#ffffff;stroke:#000000;stroke-width:1pt;stroke-opacity:1"
         d="M 0,-7.0710768 L -7.0710894,0 L 0,7.0710589 L 7.0710462,0 L 0,-7.0710768 z "
         id="path16557" />
    </marker>
    <marker
       inkscape:stockid="EmptyDiamondL"
       orient="auto"
       refY="0.0"
       refX="0.0"
       id="marker16537"
       style="overflow:visible"
       inkscape:isstock="true">
      <path
         id="path16539"
         d="M 0,-7.0710768 L -7.0710894,0 L 0,7.0710589 L 7.0710462,0 L 0,-7.0710768 z "
         style="fill-rule:evenodd;fill:#ffffff;stroke:#000000;stroke-width:1pt;stroke-opacity:1"
         transform="scale(0.8)" />
    </marker>
    <marker
       inkscape:stockid="EmptyDiamondLend"
       orient="auto"
       refY="0.0"
       refX="0.0"
       id="EmptyDiamondLend"
       style="overflow:visible"
       inkscape:isstock="true">
      <path
         id="path16383"
         d="M 0,-7.0710768 L -7.0710894,0 L 0,7.0710589 L 7.0710462,0 L 0,-7.0710768 z "
         style="fill-rule:evenodd;fill:#ffffff;stroke:#000000;stroke-width:1pt;stroke-opacity:1"
         transform="scale(0.8) translate(-7,0)" />
    </marker>
    <marker
       inkscape:stockid="EmptyDiamondL"
       orient="auto"
       refY="0.0"
       refX="0.0"
       id="marker16529"
       style="overflow:visible"
       inkscape:isstock="true">
      <path
         id="path16531"
         d="M 0,-7.0710768 L -7.0710894,0 L 0,7.0710589 L 7.0710462,0 L 0,-7.0710768 z "
         style="fill-rule:evenodd;fill:#ffffff;stroke:#000000;stroke-width:1pt;stroke-opacity:1"
         transform="scale(0.8)" />
    </marker>
    <marker
       inkscape:stockid="EmptyDiamondLstart"
       orient="auto"
       refY="0.0"
       refX="0.0"
       id="EmptyDiamondLstart"
       style="overflow:visible"
       inkscape:isstock="true">
      <path
         id="path16374"
         d="M 0,-7.0710768 L -7.0710894,0 L 0,7.0710589 L 7.0710462,0 L 0,-7.0710768 z "
         style="fill-rule:evenodd;fill:#ffffff;stroke:#000000;stroke-width:1pt;stroke-opacity:1"
         transform="scale(0.8) translate(7,0)" />
    </marker>
    <marker
       inkscape:stockid="EmptyDiamondL"
       orient="auto"
       refY="0.0"
       refX="0.0"
       id="EmptyDiamondL"
       style="overflow:visible"
       inkscape:isstock="true">
      <path
         id="path16365"
         d="M 0,-7.0710768 L -7.0710894,0 L 0,7.0710589 L 7.0710462,0 L 0,-7.0710768 z "
         style="fill-rule:evenodd;fill:#ffffff;stroke:#000000;stroke-width:1pt;stroke-opacity:1"
         transform="scale(0.8)" />
    </marker>
    <marker
       inkscape:isstock="true"
       style="overflow:visible"
       id="marker16521"
       refX="0.0"
       refY="0.0"
       orient="auto"
       inkscape:stockid="DiamondL">
      <path
         transform="scale(0.8)"
         style="fill-rule:evenodd;stroke:#000000;stroke-width:1pt;stroke-opacity:1;fill:#000000;fill-opacity:1"
         d="M 0,-7.0710768 L -7.0710894,0 L 0,7.0710589 L 7.0710462,0 L 0,-7.0710768 z "
         id="path16523" />
    </marker>
    <marker
       inkscape:stockid="Arrow1Lend"
       orient="auto"
       refY="0.0"
       refX="0.0"
       id="Arrow1Lend"
       style="overflow:visible;"
       inkscape:isstock="true">
      <path
         id="path16262"
         d="M 0.0,0.0 L 5.0,-5.0 L -12.5,0.0 L 5.0,5.0 L 0.0,0.0 z "
         style="fill-rule:evenodd;stroke:#000000;stroke-width:1pt;stroke-opacity:1;fill:#000000;fill-opacity:1"
         transform="scale(0.8) rotate(180) translate(12.5,0)" />
    </marker>
    <inkscape:perspective
       sodipodi:type="inkscape:persp3d"
       inkscape:vp_x="0 : 526.1811 : 1"
       inkscape:vp_y="0 : 1000 : 0"
       inkscape:vp_z="744.09449 : 526.1811 : 1"
       inkscape:persp3d-origin="372.04724 : 350.7874 : 1"
       id="perspective4288" />
  </defs>
  <sodipodi:namedview
     id="base"
     pagecolor="#ffffff"
     bordercolor="#666666"
     borderopacity="1.0"
     inkscape:pageopacity="0.0"
     inkscape:pageshadow="2"
     inkscape:zoom="7.7033228"
     inkscape:cx="110.76417"
     inkscape:cy="451.13831"
     inkscape:document-units="px"
     inkscape:current-layer="layer1"
     showgrid="false"
     inkscape:window-width="1920"
     inkscape:window-height="1029"
     inkscape:window-x="0"
     inkscape:window-y="25"
     inkscape:window-maximized="1"
     inkscape:snap-bbox="true"
     inkscape:snap-bbox-edge-midpoints="true"
     inkscape:snap-global="false" />
  <metadata
     id="metadata7">
    <rdf:RDF>
      <cc:Work
         rdf:about="">
        <dc:format>image/svg+xml</dc:format>
        <dc:type
           rdf:resource="http://purl.org/dc/dcmitype/StillImage" />
        <dc:title></dc:title>
      </cc:Work>
    </rdf:RDF>
  </metadata>
  <g
     inkscape:label="Layer 1"
     inkscape:groupmode="layer"
     id="layer1">
    <flowRoot
       transform="translate(7.5305296,596.28458)"
       style="font-style:normal;font-weight:normal;font-size:40px;line-height:125%;font-family:sans-serif;letter-spacing:0px;word-spacing:0px;fill:#000000;fill-opacity:1;stroke:none;stroke-width:1px;stroke-linecap:butt;stroke-linejoin:miter;stroke-opacity:1"
       id="flowRoot6234"
       xml:space="preserve"><flowRegion
         id="flowRegion6236"><rect
           y="553.43365"
           x="111.42857"
           height="61.785713"
           width="203.92857"
           id="rect6238" /></flowRegion><flowPara
         id="flowPara6240" /></flowRoot>    <flowRoot
       transform="translate(7.5305296,596.28458)"
       style="font-style:normal;font-weight:normal;font-size:40px;line-height:125%;font-family:sans-serif;letter-spacing:0px;word-spacing:0px;fill:#000000;fill-opacity:1;stroke:none;stroke-width:1px;stroke-linecap:butt;stroke-linejoin:miter;stroke-opacity:1"
       id="flowRoot6242"
       xml:space="preserve"><flowRegion
         id="flowRegion6244"><rect
           y="427.36221"
           x="224.28572"
           height="52.5"
           width="88.214287"
           id="rect6246" /></flowRegion><flowPara
         id="flowPara6248" /></flowRoot>    <flowRoot
       transform="translate(7.5305296,596.28458)"
       xml:space="preserve"
       id="flowRoot6250"
       style="font-style:normal;font-weight:normal;font-size:40px;line-height:125%;font-family:sans-serif;letter-spacing:0px;word-spacing:0px;fill:#000000;fill-opacity:1;stroke:none;stroke-width:1px;stroke-linecap:butt;stroke-linejoin:miter;stroke-opacity:1"><flowRegion
         id="flowRegion6252"><rect
           id="rect6254"
           width="117.14286"
           height="436.42856"
           x="560.71429"
           y="437.36221" /></flowRegion><flowPara
         id="flowPara6256" /></flowRoot>    <flowRoot
       transform="translate(-513.45554,587.58737)"
       style="font-style:normal;font-weight:normal;font-size:40px;line-height:125%;font-family:sans-serif;letter-spacing:0px;word-spacing:0px;fill:#000000;fill-opacity:1;stroke:none;stroke-width:1px;stroke-linecap:butt;stroke-linejoin:miter;stroke-opacity:1"
       id="flowRoot7287"
       xml:space="preserve"><flowRegion
         id="flowRegion7289"><rect
           y="553.43365"
           x="111.42857"
           height="61.785713"
           width="203.92857"
           id="rect7291" /></flowRegion><flowPara
         id="flowPara7293" /></flowRoot>    <flowRoot
       transform="translate(-513.45554,587.58737)"
       style="font-style:normal;font-weight:normal;font-size:40px;line-height:125%;font-family:sans-serif;letter-spacing:0px;word-spacing:0px;fill:#000000;fill-opacity:1;stroke:none;stroke-width:1px;stroke-linecap:butt;stroke-linejoin:miter;stroke-opacity:1"
       id="flowRoot7295"
       xml:space="preserve"><flowRegion
         id="flowRegion7297"><rect
           y="427.36221"
           x="224.28572"
           height="52.5"
           width="88.214287"
           id="rect7299" /></flowRegion><flowPara
         id="flowPara7301" /></flowRoot>    <flowRoot
       transform="translate(-513.45554,587.58737)"
       xml:space="preserve"
       id="flowRoot7303"
       style="font-style:normal;font-weight:normal;font-size:40px;line-height:125%;font-family:sans-serif;letter-spacing:0px;word-spacing:0px;fill:#000000;fill-opacity:1;stroke:none;stroke-width:1px;stroke-linecap:butt;stroke-linejoin:miter;stroke-opacity:1"><flowRegion
         id="flowRegion7305"><rect
           id="rect7307"
           width="117.14286"
           height="436.42856"
           x="560.71429"
           y="437.36221" /></flowRegion><flowPara
         id="flowPara7309" /></flowRoot>    <g
       id="g7223"
       transform="matrix(0.39406646,0,0,0.39406646,47.233547,123.45505)">
      <g
         id="g4825"
         transform="translate(264.24747,60.154808)">
        <rect
           transform="matrix(2.537643,0,0,2.537643,-119.86188,-313.28485)"
           y="542.48334"
           x="131.78664"
           height="6.0959263"
           width="22.383797"
           id="rect6288"
           style="fill:#e5ffd5;fill-opacity:1;fill-rule:evenodd;stroke:#000000;stroke-width:0.19878545px;stroke-linecap:butt;stroke-linejoin:miter;stroke-opacity:1" />
        <text
           xml:space="preserve"
           style="font-style:normal;font-weight:normal;font-size:7.07173824px;line-height:125%;font-family:sans-serif;letter-spacing:0px;word-spacing:0px;fill:#000000;fill-opacity:1;stroke:none;stroke-width:1px;stroke-linecap:butt;stroke-linejoin:miter;stroke-opacity:1"
           x="234.4619"
           y="1073.6473"
           id="text6290"
           sodipodi:linespacing="125%"><tspan
             sodipodi:role="line"
             id="tspan6292"
             x="234.4619"
             y="1073.6473"
             style="font-style:normal;font-variant:normal;font-weight:normal;font-stretch:normal;font-family:FreeSans;-inkscape-font-specification:FreeSans;fill:#000000;fill-opacity:1">Node</tspan></text>
      </g>
    </g>
    <g
       id="g7200"
       transform="matrix(0.39406646,0,0,0.39406646,118.8839,92.858684)">
      <rect
         style="fill:#e3fffc;fill-opacity:1;fill-rule:evenodd;stroke:#000000;stroke-width:0.50444651px;stroke-linecap:butt;stroke-linejoin:miter;stroke-opacity:1"
         id="rect6296"
         width="56.802086"
         height="15.469285"
         x="108.81605"
         y="1115.7227" />
      <text
         xml:space="preserve"
         style="font-style:normal;font-weight:normal;font-size:7.07173824px;line-height:125%;font-family:sans-serif;letter-spacing:0px;word-spacing:0px;fill:#000000;fill-opacity:1;stroke:none;stroke-width:1px;stroke-linecap:butt;stroke-linejoin:miter;stroke-opacity:1"
         x="130.03555"
         y="1126.0258"
         id="text6298"
         sodipodi:linespacing="125%"><tspan
           sodipodi:role="line"
           id="tspan6300"
           x="130.03555"
           y="1126.0258"
           style="font-style:normal;font-variant:normal;font-weight:normal;font-stretch:normal;font-family:FreeSans;-inkscape-font-specification:FreeSans">Tree</tspan></text>
    </g>
    <g
       id="g5160"
       transform="translate(-186.15507,29.74075)">
      <rect
         y="655.86951"
         x="272.90176"
         height="6.0959263"
         width="22.383797"
         id="rect6302"
         style="fill:#edc7ee;fill-opacity:1;fill-rule:evenodd;stroke:#000000;stroke-width:0.19878545px;stroke-linecap:butt;stroke-linejoin:miter;stroke-opacity:1" />
      <text
         sodipodi:linespacing="125%"
         id="text6304"
         y="659.92963"
         x="280.09454"
         style="font-style:normal;font-weight:normal;font-size:2.78673482px;line-height:125%;font-family:sans-serif;letter-spacing:0px;word-spacing:0px;fill:#000000;fill-opacity:1;stroke:none;stroke-width:1px;stroke-linecap:butt;stroke-linejoin:miter;stroke-opacity:1"
         xml:space="preserve"><tspan
           style="font-style:normal;font-variant:normal;font-weight:normal;font-stretch:normal;font-family:FreeSans;-inkscape-font-specification:FreeSans"
           y="659.92963"
           x="280.09454"
           id="tspan6306"
           sodipodi:role="line">Frame</tspan></text>
    </g>
    <g
       id="g8103"
       transform="matrix(0.39406646,0,0,0.39406646,52.920017,401.71868)">
      <rect
         style="fill:#edc7ee;fill-opacity:1;fill-rule:evenodd;stroke:#000000;stroke-width:0.50444651px;stroke-linecap:butt;stroke-linejoin:miter;stroke-opacity:1"
         id="rect6308"
         width="56.802086"
         height="15.469285"
         x="216.48015"
         y="738.05981" />
      <text
         xml:space="preserve"
         style="font-style:normal;font-weight:normal;font-size:7.07173824px;line-height:125%;font-family:sans-serif;letter-spacing:0px;word-spacing:0px;fill:#000000;fill-opacity:1;stroke:none;stroke-width:1px;stroke-linecap:butt;stroke-linejoin:miter;stroke-opacity:1"
         x="230.63759"
         y="748.36292"
         id="text6310"
         sodipodi:linespacing="125%"><tspan
           sodipodi:role="line"
           id="tspan6312"
           x="230.63759"
           y="748.36292"
           style="font-style:normal;font-variant:normal;font-weight:normal;font-stretch:normal;font-family:FreeSans;-inkscape-font-specification:FreeSans">Modeline</tspan></text>
    </g>
    <g
       id="g7213"
       transform="matrix(0.39406646,0,0,0.39406646,169.96413,87.619329)">
      <rect
         y="1149.4735"
         x="71.480148"
         height="15.469285"
         width="56.802086"
         id="rect6314"
         style="fill:#e3fffc;fill-opacity:1;fill-rule:evenodd;stroke:#000000;stroke-width:0.50444651px;stroke-linecap:butt;stroke-linejoin:miter;stroke-opacity:1" />
      <text
         sodipodi:linespacing="125%"
         id="text6316"
         y="1159.7766"
         x="91.136917"
         style="font-style:normal;font-weight:normal;font-size:7.07173824px;line-height:125%;font-family:sans-serif;letter-spacing:0px;word-spacing:0px;fill:#000000;fill-opacity:1;stroke:none;stroke-width:1px;stroke-linecap:butt;stroke-linejoin:miter;stroke-opacity:1"
         xml:space="preserve"><tspan
           style="font-style:normal;font-variant:normal;font-weight:normal;font-stretch:normal;font-family:FreeSans;-inkscape-font-specification:FreeSans"
           y="1159.7766"
           x="91.136917"
           id="tspan6318"
           sodipodi:role="line">Menu</tspan></text>
    </g>
    <g
       id="g8108"
       transform="matrix(0.39406646,0,0,0.39406646,52.920017,401.71868)">
      <rect
         style="fill:#edc7ee;fill-opacity:1;fill-rule:evenodd;stroke:#000000;stroke-width:0.50444651px;stroke-linecap:butt;stroke-linejoin:miter;stroke-opacity:1"
         id="rect6320"
         width="56.802086"
         height="15.469285"
         x="288.4256"
         y="738.05994" />
      <text
         xml:space="preserve"
         style="font-style:normal;font-weight:normal;font-size:7.07173824px;line-height:125%;font-family:sans-serif;letter-spacing:0px;word-spacing:0px;fill:#000000;fill-opacity:1;stroke:none;stroke-width:1px;stroke-linecap:butt;stroke-linejoin:miter;stroke-opacity:1"
         x="305.065"
         y="748.36292"
         id="text6322"
         sodipodi:linespacing="125%"><tspan
           sodipodi:role="line"
           id="tspan6324"
           x="305.065"
           y="748.36292"
           style="font-style:normal;font-variant:normal;font-weight:normal;font-stretch:normal;font-family:FreeSans;-inkscape-font-specification:FreeSans">Titlebar</tspan></text>
    </g>
    <g
       id="g7218"
       transform="matrix(0.39406646,0,0,0.39406646,140.88577,75.416802)">
      <rect
         inkscape:connector-avoid="true"
         y="1149.4735"
         x="144.26096"
         height="15.469285"
         width="56.802086"
         id="rect6326"
         style="fill:#e3fffc;fill-opacity:1;fill-rule:evenodd;stroke:#000000;stroke-width:0.50444651px;stroke-linecap:butt;stroke-linejoin:miter;stroke-opacity:1" />
      <text
         sodipodi:linespacing="125%"
         id="text6328"
         y="1159.7766"
         x="158.70708"
         style="font-style:normal;font-weight:normal;font-size:7.07173824px;line-height:125%;font-family:sans-serif;letter-spacing:0px;word-spacing:0px;fill:#000000;fill-opacity:1;stroke:none;stroke-width:1px;stroke-linecap:butt;stroke-linejoin:miter;stroke-opacity:1"
         xml:space="preserve"><tspan
           style="font-style:normal;font-variant:normal;font-weight:normal;font-stretch:normal;font-family:FreeSans;-inkscape-font-specification:FreeSans"
           y="1159.7766"
           x="158.70708"
           id="tspan6330"
           sodipodi:role="line">Menubar</tspan></text>
    </g>
    <g
       id="g8113"
       transform="matrix(0.39406646,0,0,0.39406646,15.101532,416.40548)">
      <rect
         style="fill:#edc7ee;fill-opacity:1;fill-rule:evenodd;stroke:#000000;stroke-width:0.50444651px;stroke-linecap:butt;stroke-linejoin:miter;stroke-opacity:1"
         id="rect6332"
         width="56.802086"
         height="15.469285"
         x="360.37109"
         y="738.05994" />
      <text
         xml:space="preserve"
         style="font-style:normal;font-weight:normal;font-size:7.07173824px;line-height:125%;font-family:sans-serif;letter-spacing:0px;word-spacing:0px;fill:#000000;fill-opacity:1;stroke:none;stroke-width:1px;stroke-linecap:butt;stroke-linejoin:miter;stroke-opacity:1"
         x="381.19415"
         y="748.36304"
         id="text6334"
         sodipodi:linespacing="125%"><tspan
           sodipodi:role="line"
           id="tspan6336"
           x="381.19415"
           y="748.36304"
           style="font-style:normal;font-variant:normal;font-weight:normal;font-stretch:normal;font-family:FreeSans;-inkscape-font-specification:FreeSans">Shell</tspan></text>
    </g>
    <g
       id="g8098"
       transform="matrix(0.39406646,0,0,0.39406646,52.920017,401.71868)">
      <rect
         y="738.05981"
         x="144.53471"
         height="15.469285"
         width="56.802086"
         id="rect6338"
         style="fill:#edc7ee;fill-opacity:1;fill-rule:evenodd;stroke:#000000;stroke-width:0.50444651px;stroke-linecap:butt;stroke-linejoin:miter;stroke-opacity:1" />
      <text
         sodipodi:linespacing="125%"
         id="text6340"
         y="748.36292"
         x="163.10277"
         style="font-style:normal;font-weight:normal;font-size:7.07173824px;line-height:125%;font-family:sans-serif;letter-spacing:0px;word-spacing:0px;fill:#000000;fill-opacity:1;stroke:none;stroke-width:1px;stroke-linecap:butt;stroke-linejoin:miter;stroke-opacity:1"
         xml:space="preserve"><tspan
           style="font-style:normal;font-variant:normal;font-weight:normal;font-stretch:normal;font-family:FreeSans;-inkscape-font-specification:FreeSans"
           y="748.36292"
           x="163.10277"
           id="tspan6342"
           sodipodi:role="line">Dialog</tspan></text>
    </g>
    <g
       id="g7258"
       transform="matrix(0.39406646,0,0,0.39406646,170.22376,180.04698)">
      <rect
         style="fill:#e3dbdb;fill-opacity:1;fill-rule:evenodd;stroke:#000000;stroke-width:0.50444651px;stroke-linecap:butt;stroke-linejoin:miter;stroke-opacity:1"
         id="rect6572"
         width="56.802086"
         height="15.469284"
         x="184.34061"
         y="1286.7535" />
      <text
         xml:space="preserve"
         style="font-style:normal;font-weight:normal;font-size:7.07173824px;line-height:125%;font-family:sans-serif;letter-spacing:0px;word-spacing:0px;fill:#000000;fill-opacity:1;stroke:none;stroke-width:1px;stroke-linecap:butt;stroke-linejoin:miter;stroke-opacity:1"
         x="201.24593"
         y="1297.0566"
         id="text6574"
         sodipodi:linespacing="125%"><tspan
           sodipodi:role="line"
           id="tspan6576"
           x="201.24593"
           y="1297.0566"
           style="font-style:normal;font-variant:normal;font-weight:normal;font-stretch:normal;font-family:FreeSans;-inkscape-font-specification:FreeSans">System</tspan></text>
    </g>
    <g
       id="g7273"
       transform="matrix(0.39406646,0,0,0.39406646,-95.321274,218.57665)">
      <rect
         y="1286.7535"
         x="262.53131"
         height="15.469284"
         width="56.802086"
         id="rect6578"
         style="fill:#e3dedb;fill-opacity:1;fill-rule:evenodd;stroke:#000000;stroke-width:0.50444651px;stroke-linecap:butt;stroke-linejoin:miter;stroke-opacity:1" />
      <text
         sodipodi:linespacing="125%"
         id="text6580"
         y="1297.0566"
         x="276.21027"
         style="font-style:normal;font-weight:normal;font-size:7.07173824px;line-height:125%;font-family:sans-serif;letter-spacing:0px;word-spacing:0px;fill:#000000;fill-opacity:1;stroke:none;stroke-width:1px;stroke-linecap:butt;stroke-linejoin:miter;stroke-opacity:1"
         xml:space="preserve"><tspan
           style="font-style:normal;font-variant:normal;font-weight:normal;font-stretch:normal;font-family:FreeSans;-inkscape-font-specification:FreeSans;fill:#000000"
           y="1297.0566"
           x="276.21027"
           id="tspan6582"
           sodipodi:role="line">Resource</tspan></text>
    </g>
    <g
       id="g7278"
       transform="matrix(0.39406646,0,0,0.39406646,-95.321274,218.57665)">
      <g
         id="g6584"
         transform="matrix(1.2459151,0,0,1.2459151,-376.9886,356.35138)">
        <g
           id="g6586">
          <rect
             style="fill:#e3dbdb;fill-opacity:1;fill-rule:evenodd;stroke:#000000;stroke-width:0.40488034px;stroke-linecap:butt;stroke-linejoin:miter;stroke-opacity:1"
             id="rect6588"
             width="45.590656"
             height="12.416002"
             x="576.05096"
             y="746.76208" />
        </g>
        <text
           sodipodi:linespacing="125%"
           id="text6590"
           y="755.03162"
           x="585.94519"
           style="font-style:normal;font-weight:normal;font-size:5.67593908px;line-height:125%;font-family:sans-serif;letter-spacing:0px;word-spacing:0px;fill:#000000;fill-opacity:1;stroke:none;stroke-width:1px;stroke-linecap:butt;stroke-linejoin:miter;stroke-opacity:1"
           xml:space="preserve"><tspan
             style="font-style:normal;font-variant:normal;font-weight:normal;font-stretch:normal;font-family:FreeSans;-inkscape-font-specification:FreeSans"
             y="755.03162"
             x="585.94519"
             id="tspan6592"
             sodipodi:role="line">Reference</tspan></text>
      </g>
    </g>
    <g
       transform="matrix(0.49097335,0,0,0.49097335,-214.0169,359.00278)"
       id="g6648">
      <g
         id="g6650"
         transform="translate(1.9337063,-2.2652803e-6)">
        <g
           id="g6652">
          <g
             id="g6654">
            <rect
               style="fill:#e3dbdb;fill-opacity:1;fill-rule:evenodd;stroke:#000000;stroke-width:0.40488034px;stroke-linecap:butt;stroke-linejoin:miter;stroke-opacity:1"
               id="rect6656"
               width="45.590656"
               height="12.416002"
               x="576.05096"
               y="746.76208" />
          </g>
          <text
             sodipodi:linespacing="125%"
             id="text6658"
             y="755.03162"
             x="586.0202"
             style="font-style:normal;font-weight:normal;font-size:5.67593908px;line-height:125%;font-family:sans-serif;letter-spacing:0px;word-spacing:0px;fill:#000000;fill-opacity:1;stroke:none;stroke-width:1px;stroke-linecap:butt;stroke-linejoin:miter;stroke-opacity:1"
             xml:space="preserve"><tspan
               style="font-style:normal;font-variant:normal;font-weight:normal;font-stretch:normal;font-family:FreeSans;-inkscape-font-specification:FreeSans"
               y="755.03162"
               x="586.0202"
               id="tspan6660"
               sodipodi:role="line">Properties</tspan></text>
        </g>
      </g>
      <g
         id="g6662"
         transform="translate(87.895873,3.1642514)">
        <g
           id="g6664"
           transform="translate(-23.20451,-3.1642537)">
          <g
             id="g6666">
            <rect
               y="746.76208"
               x="576.05096"
               height="12.416002"
               width="45.590656"
               id="rect6668"
               style="fill:#e3dbdb;fill-opacity:1;fill-rule:evenodd;stroke:#000000;stroke-width:0.40488034px;stroke-linecap:butt;stroke-linejoin:miter;stroke-opacity:1" />
          </g>
          <text
             xml:space="preserve"
             style="font-style:normal;font-weight:normal;font-size:5.67593908px;line-height:125%;font-family:sans-serif;letter-spacing:0px;word-spacing:0px;fill:#000000;fill-opacity:1;stroke:none;stroke-width:1px;stroke-linecap:butt;stroke-linejoin:miter;stroke-opacity:1"
             x="589.92731"
             y="755.03162"
             id="text6670"
             sodipodi:linespacing="125%"><tspan
               sodipodi:role="line"
               id="tspan6672"
               x="589.92731"
               y="755.03162"
               style="font-style:normal;font-variant:normal;font-weight:normal;font-stretch:normal;font-family:FreeSans;-inkscape-font-specification:FreeSans">Project</tspan></text>
        </g>
      </g>
    </g>
    <g
       id="g7263"
       transform="matrix(0.39406646,0,0,0.39406646,170.22376,180.04698)">
      <rect
         y="1326.3965"
         x="223.26918"
         height="15.469284"
         width="56.802086"
         id="rect6704"
         style="fill:#e3dbdb;fill-opacity:1;fill-rule:evenodd;stroke:#000000;stroke-width:0.50444651px;stroke-linecap:butt;stroke-linejoin:miter;stroke-opacity:1" />
      <text
         sodipodi:linespacing="125%"
         id="text6706"
         y="1336.6996"
         x="238.53497"
         style="font-style:normal;font-weight:normal;font-size:7.07173824px;line-height:125%;font-family:sans-serif;letter-spacing:0px;word-spacing:0px;fill:#000000;fill-opacity:1;stroke:none;stroke-width:1px;stroke-linecap:butt;stroke-linejoin:miter;stroke-opacity:1"
         xml:space="preserve"><tspan
           style="font-style:normal;font-variant:normal;font-weight:normal;font-stretch:normal;font-family:FreeSans;-inkscape-font-specification:FreeSans"
           y="1336.6996"
           x="238.53497"
           id="tspan6708"
           sodipodi:role="line">Network</tspan></text>
    </g>
    <g
       id="g8118"
       transform="matrix(0.39406646,0,0,0.39406646,-21.248274,403.55453)">
      <g
         transform="translate(-187.97083,-469.40783)"
         id="g7268">
        <rect
           y="1326.3965"
           x="303.26917"
           height="15.469284"
           width="56.802086"
           id="rect6710"
           style="fill:#e3dbdb;fill-opacity:1;fill-rule:evenodd;stroke:#000000;stroke-width:0.50444651px;stroke-linecap:butt;stroke-linejoin:miter;stroke-opacity:1" />
        <text
           sodipodi:linespacing="125%"
           id="text6712"
           y="1336.6996"
           x="322.61304"
           style="font-style:normal;font-weight:normal;font-size:7.07173824px;line-height:125%;font-family:sans-serif;letter-spacing:0px;word-spacing:0px;fill:#000000;fill-opacity:1;stroke:none;stroke-width:1px;stroke-linecap:butt;stroke-linejoin:miter;stroke-opacity:1"
           xml:space="preserve"><tspan
             style="font-style:normal;font-variant:normal;font-weight:normal;font-stretch:normal;font-family:FreeSans;-inkscape-font-specification:FreeSans"
             y="1336.6996"
             x="322.61304"
             id="tspan6714"
             sodipodi:role="line">Noise</tspan></text>
      </g>
    </g>
    <g
       id="g8124"
       transform="matrix(0.39406646,0,0,0.39406646,-4.1763495,242.51964)">
      <rect
         y="870.13776"
         x="423.02884"
         height="15.469285"
         width="56.802086"
         id="rect7403"
         style="fill:#e3fffc;fill-opacity:1;fill-rule:evenodd;stroke:#000000;stroke-width:0.50444651px;stroke-linecap:butt;stroke-linejoin:miter;stroke-opacity:1" />
      <text
         sodipodi:linespacing="125%"
         id="text7405"
         y="880.44086"
         x="443.19394"
         style="font-style:normal;font-weight:normal;font-size:7.07173824px;line-height:125%;font-family:sans-serif;letter-spacing:0px;word-spacing:0px;fill:#000000;fill-opacity:1;stroke:none;stroke-width:1px;stroke-linecap:butt;stroke-linejoin:miter;stroke-opacity:1"
         xml:space="preserve"><tspan
           style="font-style:normal;font-variant:normal;font-weight:normal;font-stretch:normal;font-family:FreeSans;-inkscape-font-specification:FreeSans"
           y="880.44086"
           x="443.19394"
           id="tspan7407"
           sodipodi:role="line">Entry</tspan></text>
    </g>
    <g
       id="g8134"
       transform="matrix(0.39406646,0,0,0.39406646,227.26604,144.59903)">
      <rect
         style="fill:#e3fffc;fill-opacity:1;fill-rule:evenodd;stroke:#000000;stroke-width:0.50444651px;stroke-linecap:butt;stroke-linejoin:miter;stroke-opacity:1"
         id="rect7433"
         width="56.802086"
         height="15.469285"
         x="-177.86577"
         y="1054.6471" />
      <text
         xml:space="preserve"
         style="font-style:normal;font-weight:normal;font-size:7.07173824px;line-height:125%;font-family:sans-serif;letter-spacing:0px;word-spacing:0px;fill:#000000;fill-opacity:1;stroke:none;stroke-width:1px;stroke-linecap:butt;stroke-linejoin:miter;stroke-opacity:1"
         x="-165.32753"
         y="1064.9502"
         id="text7435"
         sodipodi:linespacing="125%"><tspan
           sodipodi:role="line"
           id="tspan7437"
           x="-165.32753"
           y="1064.9502"
           style="font-style:normal;font-variant:normal;font-weight:normal;font-stretch:normal;font-family:FreeSans;-inkscape-font-specification:FreeSans">Command</tspan></text>
    </g>
    <g
       id="g8129"
       transform="matrix(0.39406646,0,0,0.39406646,289.08059,192.14264)">
      <rect
         y="1054.6471"
         x="-242.14314"
         height="15.469285"
         width="56.802086"
         id="rect7439"
         style="fill:#e3fffc;fill-opacity:1;fill-rule:evenodd;stroke:#000000;stroke-width:0.50444651px;stroke-linecap:butt;stroke-linejoin:miter;stroke-opacity:1" />
      <text
         sodipodi:linespacing="125%"
         id="text7441"
         y="1064.9501"
         x="-223.8192"
         style="font-style:normal;font-weight:normal;font-size:7.07173824px;line-height:125%;font-family:sans-serif;letter-spacing:0px;word-spacing:0px;fill:#000000;fill-opacity:1;stroke:none;stroke-width:1px;stroke-linecap:butt;stroke-linejoin:miter;stroke-opacity:1"
         xml:space="preserve"><tspan
           style="font-style:normal;font-variant:normal;font-weight:normal;font-stretch:normal;font-family:FreeSans;-inkscape-font-specification:FreeSans"
           y="1064.9501"
           x="-223.8192"
           id="tspan7443"
           sodipodi:role="line">Button</tspan></text>
    </g>
    <path
       inkscape:connector-curvature="0"
       inkscape:connector-type="polyline"
       id="path16549"
       d="m 113.9538,515.44633 0,16.50327"
       style="fill:none;fill-rule:evenodd;stroke:#000000;stroke-width:0.2;stroke-linecap:butt;stroke-linejoin:miter;stroke-miterlimit:4;stroke-dasharray:none;stroke-opacity:1;marker-end:url(#marker16595)"
       sodipodi:nodetypes="cc"
       inkscape:export-xdpi="887.09003"
       inkscape:export-ydpi="887.09003" />
    <text
       sodipodi:linespacing="125%"
       id="text16551"
       y="530.41168"
       x="109.11947"
       style="font-style:normal;font-weight:normal;font-size:1.67764378px;line-height:125%;font-family:sans-serif;letter-spacing:0px;word-spacing:0px;fill:#000000;fill-opacity:1;stroke:none;stroke-width:1px;stroke-linecap:butt;stroke-linejoin:miter;stroke-opacity:1"
       xml:space="preserve"
       inkscape:export-xdpi="887.09003"
       inkscape:export-ydpi="887.09003"><tspan
         style="font-style:italic;font-variant:normal;font-weight:normal;font-stretch:normal;font-size:1.67764378px;line-height:125%;font-family:FreeSans;-inkscape-font-specification:'FreeSans, Italic';text-align:start;writing-mode:lr-tb;text-anchor:start"
         y="530.41168"
         x="109.11947"
         id="tspan16553"
         sodipodi:role="line">many </tspan></text>
    <path
       style="fill:none;fill-rule:evenodd;stroke:#000000;stroke-width:0.2;stroke-linecap:butt;stroke-linejoin:miter;stroke-miterlimit:4;stroke-dasharray:none;stroke-opacity:1;marker-end:url(#marker4881)"
       d="m 122.95819,532.31214 -0.023,-16.56854"
       id="path4875"
       inkscape:connector-type="polyline"
       inkscape:connector-curvature="0"
       sodipodi:nodetypes="cc"
       inkscape:export-xdpi="887.09003"
       inkscape:export-ydpi="887.09003" />
    <g
       id="g5271"
       inkscape:export-xdpi="887.09003"
       inkscape:export-ydpi="887.09003">
      <g
         transform="matrix(0.39406646,0,0,0.39406646,-19.75792,147.71486)"
         id="g7184">
        <g
           transform="matrix(1.2459151,0,0,1.2459151,35.359211,403.47303)"
           id="g6262">
          <rect
             y="459.2749"
             x="143.83511"
             height="12.416002"
             width="45.590656"
             id="rect6264"
             style="fill:#fcffe3;fill-opacity:1;fill-rule:evenodd;stroke:#000000;stroke-width:0.40488034px;stroke-linecap:butt;stroke-linejoin:miter;stroke-opacity:1" />
          <text
             sodipodi:linespacing="125%"
             id="text6266"
             y="467.5444"
             x="155.42259"
             style="font-style:normal;font-weight:normal;font-size:5.67593908px;line-height:125%;font-family:sans-serif;letter-spacing:0px;word-spacing:0px;fill:#000000;fill-opacity:1;stroke:none;stroke-width:1px;stroke-linecap:butt;stroke-linejoin:miter;stroke-opacity:1"
             xml:space="preserve"><tspan
               style="font-style:normal;font-variant:normal;font-weight:normal;font-stretch:normal;font-family:FreeSans;-inkscape-font-specification:FreeSans"
               y="467.5444"
               x="155.42259"
               id="tspan6268"
               sodipodi:role="line">Quadrille</tspan></text>
        </g>
      </g>
      <g
         transform="matrix(0.39406646,0,0,0.39406646,31.622956,308.86508)"
         id="g16245">
        <g
           id="g7179"
           transform="translate(-29.698441,-466.9519)">
          <rect
             style="fill:#fcffe3;fill-opacity:1;fill-rule:evenodd;stroke:#000000;stroke-width:0.50444651px;stroke-linecap:butt;stroke-linejoin:miter;stroke-opacity:1"
             id="rect6392"
             width="56.802086"
             height="15.469285"
             x="113.87767"
             y="975.8476" />
          <text
             xml:space="preserve"
             style="font-style:normal;font-weight:normal;font-size:7.07173824px;line-height:125%;font-family:sans-serif;letter-spacing:0px;word-spacing:0px;fill:#000000;fill-opacity:1;stroke:none;stroke-width:1px;stroke-linecap:butt;stroke-linejoin:miter;stroke-opacity:1"
             x="130.38504"
             y="985.83667"
             id="text6394"
             sodipodi:linespacing="125%"><tspan
               sodipodi:role="line"
               id="tspan6396"
               x="130.38504"
               y="985.83667"
               style="font-style:normal;font-variant:normal;font-weight:normal;font-stretch:normal;font-family:FreeSans;-inkscape-font-specification:FreeSans;fill:#000000;fill-opacity:1">QBuffer</tspan></text>
        </g>
      </g>
      <g
         transform="matrix(0.39406646,0,0,0.39406646,-12.984539,244.07455)"
         id="g16239">
        <g
           id="g6598"
           transform="matrix(1.2459151,0,0,1.2459151,18.170786,66.44152)">
          <rect
             style="fill:#fcffe3;fill-opacity:1;fill-rule:evenodd;stroke:#000000;stroke-width:0.40488034px;stroke-linecap:butt;stroke-linejoin:miter;stroke-opacity:1"
             id="rect6600"
             width="45.590656"
             height="12.416002"
             x="143.83511"
             y="459.2749" />
          <text
             xml:space="preserve"
             style="font-style:normal;font-weight:normal;font-size:5.67593908px;line-height:125%;font-family:sans-serif;letter-spacing:0px;word-spacing:0px;fill:#000000;fill-opacity:1;stroke:none;stroke-width:1px;stroke-linecap:butt;stroke-linejoin:miter;stroke-opacity:1"
             x="154.96808"
             y="467.5444"
             id="text6602"
             sodipodi:linespacing="125%"><tspan
               sodipodi:role="line"
               id="tspan6604"
               x="154.96808"
               y="467.5444"
               style="font-style:normal;font-variant:normal;font-weight:normal;font-stretch:normal;font-family:FreeSans;-inkscape-font-specification:FreeSans">Quadtree</tspan></text>
        </g>
      </g>
      <g
         transform="matrix(0.49097335,0,0,0.49097335,-45.439902,325.19395)"
         id="g6606">
        <rect
           style="fill:#fcffe3;fill-opacity:1;fill-rule:evenodd;stroke:#000000;stroke-width:0.40488034px;stroke-linecap:butt;stroke-linejoin:miter;stroke-opacity:1"
           id="rect6608"
           width="45.590656"
           height="12.416002"
           x="224.52353"
           y="459.45068" />
        <text
           xml:space="preserve"
           style="font-style:normal;font-weight:normal;font-size:5.67593908px;line-height:125%;font-family:sans-serif;letter-spacing:0px;word-spacing:0px;fill:#000000;fill-opacity:1;stroke:none;stroke-width:1px;stroke-linecap:butt;stroke-linejoin:miter;stroke-opacity:1"
           x="241.54497"
           y="467.72018"
           id="text6610"
           sodipodi:linespacing="125%"><tspan
             sodipodi:role="line"
             id="tspan6612"
             x="241.54497"
             y="467.72018"
             style="font-style:normal;font-variant:normal;font-weight:normal;font-stretch:normal;font-family:FreeSans;-inkscape-font-specification:FreeSans">Path</tspan></text>
      </g>
      <path
         inkscape:connector-curvature="0"
         inkscape:connector-type="polyline"
         id="path16535"
         d="m 75.987065,515.59912 10e-7,16.50327"
         style="fill:none;fill-rule:evenodd;stroke:#000000;stroke-width:0.2;stroke-linecap:butt;stroke-linejoin:miter;stroke-miterlimit:4;stroke-dasharray:none;stroke-opacity:1;marker-end:url(#marker16599)" />
      <text
         sodipodi:linespacing="125%"
         id="text16545"
         y="549.43048"
         x="77.194366"
         style="font-style:normal;font-weight:normal;font-size:1.67764378px;line-height:125%;font-family:sans-serif;letter-spacing:0px;word-spacing:0px;fill:#000000;fill-opacity:1;stroke:none;stroke-width:1px;stroke-linecap:butt;stroke-linejoin:miter;stroke-opacity:1"
         xml:space="preserve"><tspan
           style="font-style:italic;font-variant:normal;font-weight:normal;font-stretch:normal;font-size:1.67764378px;line-height:125%;font-family:FreeSans;-inkscape-font-specification:'FreeSans, Italic';text-align:start;writing-mode:lr-tb;text-anchor:start"
           y="549.43048"
           x="77.194366"
           id="tspan16547"
           sodipodi:role="line">many </tspan></text>
      <path
         inkscape:connector-curvature="0"
         inkscape:connector-type="polyline"
         id="path16559"
         d="m 87.125565,512.45178 15.384155,0"
         style="fill:none;fill-rule:evenodd;stroke:#000000;stroke-width:0.2;stroke-linecap:butt;stroke-linejoin:miter;stroke-miterlimit:4;stroke-dasharray:none;stroke-opacity:1;marker-end:url(#marker16621)" />
      <path
         style="fill:none;fill-rule:evenodd;stroke:#000000;stroke-width:0.2;stroke-linecap:butt;stroke-linejoin:miter;stroke-miterlimit:4;stroke-dasharray:none;stroke-opacity:1;marker-end:url(#marker16625)"
         d="m 87.115331,535.24974 15.384149,0"
         id="path16565"
         inkscape:connector-type="polyline"
         inkscape:connector-curvature="0" />
      <path
         inkscape:connector-curvature="0"
         inkscape:connector-type="polyline"
         id="path16571"
         d="m 75.987065,509.30441 0,-7.36043"
         style="fill:none;fill-rule:evenodd;stroke:#000000;stroke-width:0.2;stroke-linecap:butt;stroke-linejoin:miter;stroke-miterlimit:4;stroke-dasharray:none;stroke-opacity:1;marker-end:url(#marker16603)" />
      <text
         sodipodi:linespacing="125%"
         id="text16577"
         y="504.32614"
         x="77.19722"
         style="font-style:normal;font-weight:normal;font-size:1.67764378px;line-height:125%;font-family:sans-serif;letter-spacing:0px;word-spacing:0px;fill:#000000;fill-opacity:1;stroke:none;stroke-width:1px;stroke-linecap:butt;stroke-linejoin:miter;stroke-opacity:1"
         xml:space="preserve"><tspan
           style="font-style:italic;font-variant:normal;font-weight:normal;font-stretch:normal;font-size:1.67764378px;line-height:125%;font-family:FreeSans;-inkscape-font-specification:'FreeSans, Italic';text-align:start;writing-mode:lr-tb;text-anchor:start"
           y="504.32614"
           x="77.19722"
           id="tspan16579"
           sodipodi:role="line">optional </tspan></text>
      <path
         inkscape:connector-curvature="0"
         inkscape:connector-type="polyline"
         id="path4844"
         d="m 75.987066,538.39711 0,12.27549"
         style="fill:none;fill-rule:evenodd;stroke:#000000;stroke-width:0.2;stroke-linecap:butt;stroke-linejoin:miter;stroke-miterlimit:4;stroke-dasharray:none;stroke-opacity:1;marker-end:url(#marker4848)" />
      <text
         sodipodi:linespacing="125%"
         id="text4884"
         y="530.28186"
         x="77.31501"
         style="font-style:normal;font-weight:normal;font-size:1.67764378px;line-height:125%;font-family:sans-serif;letter-spacing:0px;word-spacing:0px;fill:#000000;fill-opacity:1;stroke:none;stroke-width:1px;stroke-linecap:butt;stroke-linejoin:miter;stroke-opacity:1"
         xml:space="preserve"><tspan
           style="font-style:italic;font-variant:normal;font-weight:normal;font-stretch:normal;font-size:1.67764378px;line-height:125%;font-family:FreeSans;-inkscape-font-specification:'FreeSans, Italic';text-align:start;writing-mode:lr-tb;text-anchor:start"
           y="530.28186"
           x="77.31501"
           id="tspan4886"
           sodipodi:role="line">many </tspan></text>
    </g>
    <text
       sodipodi:linespacing="125%"
       id="text4928"
       y="554.94659"
       x="104.31635"
       style="font-style:italic;font-variant:normal;font-weight:normal;font-stretch:normal;font-size:1.67762503px;line-height:125%;font-family:FreeSans;-inkscape-font-specification:'FreeSans, Italic';text-align:start;letter-spacing:0px;word-spacing:0px;writing-mode:lr;text-anchor:start;fill:#000000;fill-opacity:1;stroke:none;stroke-width:1px;stroke-linecap:butt;stroke-linejoin:miter;stroke-opacity:1;"
       xml:space="preserve"><tspan
         sodipodi:role="line"
         id="tspan4948" /></text>
    <g
       id="g5247"
       inkscape:export-xdpi="887.09003"
       inkscape:export-ydpi="887.09003">
      <rect
         y="532.35822"
         x="102.91832"
         height="40.95554"
         width="22.070965"
         id="rect6270"
         style="fill:#e5ffd5;fill-opacity:1;fill-rule:evenodd;stroke:#000000;stroke-width:0.2;stroke-linecap:butt;stroke-linejoin:miter;stroke-miterlimit:4;stroke-dasharray:none;stroke-opacity:1" />
      <text
         sodipodi:linespacing="125%"
         id="text6272"
         y="536.26184"
         x="110.60238"
         style="font-style:normal;font-weight:normal;font-size:2.78673482px;line-height:125%;font-family:sans-serif;letter-spacing:0px;word-spacing:0px;fill:#000000;fill-opacity:1;stroke:none;stroke-width:0.2;stroke-linecap:butt;stroke-linejoin:miter;stroke-miterlimit:4;stroke-dasharray:none;stroke-opacity:1"
         xml:space="preserve"><tspan
           style="font-style:normal;font-variant:normal;font-weight:normal;font-stretch:normal;font-family:FreeSans;-inkscape-font-specification:FreeSans;fill:#000000;fill-opacity:1;stroke-width:0.2;stroke-miterlimit:4;stroke-dasharray:none"
           y="536.26184"
           x="110.60238"
           id="tspan6274"
           sodipodi:role="line">Node</tspan></text>
      <path
         inkscape:connector-curvature="0"
         inkscape:connector-type="polyline"
         id="path4902"
         d="m 102.81139,538.26411 22.12212,-0.0432"
         style="fill:none;fill-rule:evenodd;stroke:#000000;stroke-width:0.2;stroke-linecap:butt;stroke-linejoin:miter;stroke-miterlimit:4;stroke-dasharray:none;stroke-opacity:1" />
      <text
         sodipodi:linespacing="125%"
         id="text4910"
         y="541.05646"
         x="104.31635"
         style="font-style:normal;font-variant:normal;font-weight:normal;font-stretch:normal;font-size:1.67762506px;line-height:125%;font-family:FreeSans;-inkscape-font-specification:'FreeSans, Normal';text-align:start;letter-spacing:0px;word-spacing:0px;writing-mode:lr-tb;text-anchor:start;fill:#000000;fill-opacity:1;stroke:none;stroke-width:0.2;stroke-linecap:butt;stroke-linejoin:miter;stroke-miterlimit:4;stroke-dasharray:none;stroke-opacity:1"
         xml:space="preserve"><tspan
           style="font-style:normal;font-variant:normal;font-weight:normal;font-stretch:normal;font-size:1.67762506px;line-height:125%;font-family:FreeSans;-inkscape-font-specification:'FreeSans, Normal';text-align:start;writing-mode:lr-tb;text-anchor:start;stroke-width:0.2;stroke-miterlimit:4;stroke-dasharray:none"
           y="541.05646"
           x="104.31635"
           id="tspan4912"
           sodipodi:role="line">x, y, width, height</tspan><tspan
           id="tspan4914"
           style="font-style:normal;font-variant:normal;font-weight:normal;font-stretch:normal;font-size:1.67762506px;line-height:125%;font-family:FreeSans;-inkscape-font-specification:'FreeSans, Normal';text-align:start;writing-mode:lr-tb;text-anchor:start;stroke-width:0.2;stroke-miterlimit:4;stroke-dasharray:none"
           y="543.1535"
           x="104.31635"
           sodipodi:role="line">image</tspan><tspan
           id="tspan4916"
           style="font-style:normal;font-variant:normal;font-weight:normal;font-stretch:normal;font-size:1.67762506px;line-height:125%;font-family:FreeSans;-inkscape-font-specification:'FreeSans, Normal';text-align:start;writing-mode:lr-tb;text-anchor:start;stroke-width:0.2;stroke-miterlimit:4;stroke-dasharray:none"
           y="545.25055"
           x="104.31635"
           sodipodi:role="line">events</tspan><tspan
           id="tspan4918"
           style="font-style:normal;font-variant:normal;font-weight:normal;font-stretch:normal;font-size:1.67762506px;line-height:125%;font-family:FreeSans;-inkscape-font-specification:'FreeSans, Normal';text-align:start;writing-mode:lr-tb;text-anchor:start;stroke-width:0.2;stroke-miterlimit:4;stroke-dasharray:none"
           y="547.34753"
           x="104.31635"
           sodipodi:role="line">inputs</tspan><tspan
           id="tspan4920"
           style="font-style:normal;font-variant:normal;font-weight:normal;font-stretch:normal;font-size:1.67762506px;line-height:125%;font-family:FreeSans;-inkscape-font-specification:'FreeSans, Normal';text-align:start;writing-mode:lr-tb;text-anchor:start;stroke-width:0.2;stroke-miterlimit:4;stroke-dasharray:none"
           y="549.44458"
           x="104.31635"
           sodipodi:role="line">heading</tspan><tspan
           id="tspan4990"
           style="font-style:normal;font-variant:normal;font-weight:normal;font-stretch:normal;font-size:1.67762506px;line-height:125%;font-family:FreeSans;-inkscape-font-specification:'FreeSans, Normal';text-align:start;writing-mode:lr-tb;text-anchor:start;stroke-width:0.2;stroke-miterlimit:4;stroke-dasharray:none"
           y="551.54163"
           x="104.31635"
           sodipodi:role="line">... </tspan></text>
      <path
         style="fill:none;fill-rule:evenodd;stroke:#000000;stroke-width:0.2;stroke-linecap:butt;stroke-linejoin:miter;stroke-miterlimit:4;stroke-dasharray:none;stroke-opacity:1"
         d="m 102.8763,552.41385 22.12212,-0.0432"
         id="path4926"
         inkscape:connector-type="polyline"
         inkscape:connector-curvature="0" />
      <text
         xml:space="preserve"
         style="font-style:normal;font-variant:normal;font-weight:normal;font-stretch:normal;font-size:1.67762506px;line-height:125%;font-family:FreeSans;-inkscape-font-specification:'FreeSans, Normal';text-align:start;letter-spacing:0px;word-spacing:0px;writing-mode:lr-tb;text-anchor:start;fill:#000000;fill-opacity:1;stroke:none;stroke-width:0.2;stroke-linecap:butt;stroke-linejoin:miter;stroke-miterlimit:4;stroke-dasharray:none;stroke-opacity:1"
         x="104.31635"
         y="555.20618"
         id="text4950"
         sodipodi:linespacing="125%"><tspan
           sodipodi:role="line"
           x="104.31635"
           y="555.20618"
           style="font-style:normal;font-variant:normal;font-weight:normal;font-stretch:normal;font-size:1.67762506px;line-height:125%;font-family:FreeSans;-inkscape-font-specification:'FreeSans, Normal';text-align:start;writing-mode:lr-tb;text-anchor:start;stroke-width:0.2;stroke-miterlimit:4;stroke-dasharray:none"
           id="tspan4954">initialize-instance :after</tspan><tspan
           id="tspan4974"
           sodipodi:role="line"
           x="104.31635"
           y="557.30322"
           style="font-style:normal;font-variant:normal;font-weight:normal;font-stretch:normal;font-size:1.67762506px;line-height:125%;font-family:FreeSans;-inkscape-font-specification:'FreeSans, Normal';text-align:start;writing-mode:lr-tb;text-anchor:start;stroke-width:0.2;stroke-miterlimit:4;stroke-dasharray:none">move-to</tspan><tspan
           id="tspan4964"
           sodipodi:role="line"
           x="104.31635"
           y="559.40027"
           style="font-style:normal;font-variant:normal;font-weight:normal;font-stretch:normal;font-size:1.67762506px;line-height:125%;font-family:FreeSans;-inkscape-font-specification:'FreeSans, Normal';text-align:start;writing-mode:lr-tb;text-anchor:start;stroke-width:0.2;stroke-miterlimit:4;stroke-dasharray:none">resize</tspan><tspan
           id="tspan4968"
           sodipodi:role="line"
           x="104.31635"
           y="561.49725"
           style="font-style:normal;font-variant:normal;font-weight:normal;font-stretch:normal;font-size:1.67762506px;line-height:125%;font-family:FreeSans;-inkscape-font-specification:'FreeSans, Normal';text-align:start;writing-mode:lr-tb;text-anchor:start;stroke-width:0.2;stroke-miterlimit:4;stroke-dasharray:none">update</tspan><tspan
           id="tspan4972"
           sodipodi:role="line"
           x="104.31635"
           y="563.5943"
           style="font-style:normal;font-variant:normal;font-weight:normal;font-stretch:normal;font-size:1.67762506px;line-height:125%;font-family:FreeSans;-inkscape-font-specification:'FreeSans, Normal';text-align:start;writing-mode:lr-tb;text-anchor:start;stroke-width:0.2;stroke-miterlimit:4;stroke-dasharray:none">destroy</tspan><tspan
           sodipodi:role="line"
           x="104.31635"
           y="565.69135"
           style="font-style:normal;font-variant:normal;font-weight:normal;font-stretch:normal;font-size:1.67762506px;line-height:125%;font-family:FreeSans;-inkscape-font-specification:'FreeSans, Normal';text-align:start;writing-mode:lr-tb;text-anchor:start;stroke-width:0.2;stroke-miterlimit:4;stroke-dasharray:none"
           id="tspan4960">draw</tspan><tspan
           id="tspan4980"
           sodipodi:role="line"
           x="104.31635"
           y="567.78839"
           style="font-style:normal;font-variant:normal;font-weight:normal;font-stretch:normal;font-size:1.67762506px;line-height:125%;font-family:FreeSans;-inkscape-font-specification:'FreeSans, Normal';text-align:start;writing-mode:lr-tb;text-anchor:start;stroke-width:0.2;stroke-miterlimit:4;stroke-dasharray:none">bring-to-front</tspan><tspan
           id="tspan4984"
           sodipodi:role="line"
           x="104.31635"
           y="569.88538"
           style="font-style:normal;font-variant:normal;font-weight:normal;font-stretch:normal;font-size:1.67762506px;line-height:125%;font-family:FreeSans;-inkscape-font-specification:'FreeSans, Normal';text-align:start;writing-mode:lr-tb;text-anchor:start;stroke-width:0.2;stroke-miterlimit:4;stroke-dasharray:none">send-to-back</tspan><tspan
           id="tspan4988"
           sodipodi:role="line"
           x="104.31635"
           y="571.98242"
           style="font-style:normal;font-variant:normal;font-weight:normal;font-stretch:normal;font-size:1.67762506px;line-height:125%;font-family:FreeSans;-inkscape-font-specification:'FreeSans, Normal';text-align:start;writing-mode:lr-tb;text-anchor:start;stroke-width:0.2;stroke-miterlimit:4;stroke-dasharray:none">...</tspan></text>
    </g>
    <path
       style="fill:none;fill-rule:evenodd;stroke:#000000;stroke-width:0.2;stroke-linecap:butt;stroke-linejoin:miter;stroke-miterlimit:4;stroke-dasharray:none;stroke-opacity:1;marker-end:url(#marker5090)"
       d="m 113.81501,573.41464 0.14869,16.82139"
       id="path5169"
       inkscape:connector-type="polyline"
       inkscape:connector-curvature="0"
       inkscape:export-xdpi="887.09003"
       inkscape:export-ydpi="887.09003"
       sodipodi:nodetypes="cc" />
    <g
       id="g5223"
       inkscape:export-xdpi="887.09003"
       inkscape:export-ydpi="887.09003">
      <rect
         style="fill:#e5ffd5;fill-opacity:1;fill-rule:evenodd;stroke:#000000;stroke-width:0.2;stroke-linecap:butt;stroke-linejoin:miter;stroke-miterlimit:4;stroke-dasharray:none;stroke-opacity:1"
         id="rect5018"
         width="22.070965"
         height="40.95554"
         x="102.66145"
         y="474.52319" />
      <text
         xml:space="preserve"
         style="font-style:normal;font-weight:normal;font-size:2.78673482px;line-height:125%;font-family:sans-serif;letter-spacing:0px;word-spacing:0px;fill:#000000;fill-opacity:1;stroke:none;stroke-width:0.2;stroke-linecap:butt;stroke-linejoin:miter;stroke-miterlimit:4;stroke-dasharray:none;stroke-opacity:1"
         x="110.04559"
         y="478.42685"
         id="text5020"
         sodipodi:linespacing="125%"><tspan
           sodipodi:role="line"
           id="tspan5022"
           x="110.04559"
           y="478.42685"
           style="font-style:normal;font-variant:normal;font-weight:normal;font-stretch:normal;font-family:FreeSans;-inkscape-font-specification:FreeSans;fill:#000000;fill-opacity:1;stroke-width:0.2;stroke-miterlimit:4;stroke-dasharray:none">Buffer</tspan></text>
      <text
         xml:space="preserve"
         style="font-style:normal;font-variant:normal;font-weight:normal;font-stretch:normal;font-size:1.67762506px;line-height:125%;font-family:FreeSans;-inkscape-font-specification:'FreeSans, Normal';text-align:start;letter-spacing:0px;word-spacing:0px;writing-mode:lr-tb;text-anchor:start;fill:#000000;fill-opacity:1;stroke:none;stroke-width:0.2;stroke-linecap:butt;stroke-linejoin:miter;stroke-miterlimit:4;stroke-dasharray:none;stroke-opacity:1"
         x="104.05949"
         y="483.22147"
         id="text5026"
         sodipodi:linespacing="125%"><tspan
           sodipodi:role="line"
           x="104.05949"
           y="483.22147"
           style="font-style:normal;font-variant:normal;font-weight:normal;font-stretch:normal;font-size:1.67762506px;line-height:125%;font-family:FreeSans;-inkscape-font-specification:'FreeSans, Normal';text-align:start;writing-mode:lr-tb;text-anchor:start;stroke-width:0.2;stroke-miterlimit:4;stroke-dasharray:none"
           id="tspan5036">x, y, width, height</tspan><tspan
           id="tspan5100"
           sodipodi:role="line"
           x="104.05949"
           y="485.31851"
           style="font-style:normal;font-variant:normal;font-weight:normal;font-stretch:normal;font-size:1.67762506px;line-height:125%;font-family:FreeSans;-inkscape-font-specification:'FreeSans, Normal';text-align:start;writing-mode:lr-tb;text-anchor:start;stroke-width:0.2;stroke-miterlimit:4;stroke-dasharray:none">name</tspan><tspan
           id="tspan5092"
           sodipodi:role="line"
           x="104.05949"
           y="487.41556"
           style="font-style:normal;font-variant:normal;font-weight:normal;font-stretch:normal;font-size:1.67762506px;line-height:125%;font-family:FreeSans;-inkscape-font-specification:'FreeSans, Normal';text-align:start;writing-mode:lr-tb;text-anchor:start;stroke-width:0.2;stroke-miterlimit:4;stroke-dasharray:none">z-sort-p</tspan><tspan
           id="tspan5094"
           sodipodi:role="line"
           x="104.05949"
           y="489.51254"
           style="font-style:normal;font-variant:normal;font-weight:normal;font-stretch:normal;font-size:1.67762506px;line-height:125%;font-family:FreeSans;-inkscape-font-specification:'FreeSans, Normal';text-align:start;writing-mode:lr-tb;text-anchor:start;stroke-width:0.2;stroke-miterlimit:4;stroke-dasharray:none">modified-p</tspan><tspan
           id="tspan5096"
           sodipodi:role="line"
           x="104.05949"
           y="491.60959"
           style="font-style:normal;font-variant:normal;font-weight:normal;font-stretch:normal;font-size:1.67762506px;line-height:125%;font-family:FreeSans;-inkscape-font-specification:'FreeSans, Normal';text-align:start;writing-mode:lr-tb;text-anchor:start;stroke-width:0.2;stroke-miterlimit:4;stroke-dasharray:none">window-x, window-y</tspan><tspan
           sodipodi:role="line"
           x="104.05949"
           y="493.70663"
           style="font-style:normal;font-variant:normal;font-weight:normal;font-stretch:normal;font-size:1.67762506px;line-height:125%;font-family:FreeSans;-inkscape-font-specification:'FreeSans, Normal';text-align:start;writing-mode:lr-tb;text-anchor:start;stroke-width:0.2;stroke-miterlimit:4;stroke-dasharray:none"
           id="tspan5038">... </tspan></text>
      <text
         sodipodi:linespacing="125%"
         id="text5042"
         y="497.37119"
         x="104.05949"
         style="font-style:normal;font-variant:normal;font-weight:normal;font-stretch:normal;font-size:1.67762506px;line-height:125%;font-family:FreeSans;-inkscape-font-specification:'FreeSans, Normal';text-align:start;letter-spacing:0px;word-spacing:0px;writing-mode:lr-tb;text-anchor:start;fill:#000000;fill-opacity:1;stroke:none;stroke-width:0.2;stroke-linecap:butt;stroke-linejoin:miter;stroke-miterlimit:4;stroke-dasharray:none;stroke-opacity:1"
         xml:space="preserve"><tspan
           style="font-style:normal;font-variant:normal;font-weight:normal;font-stretch:normal;font-size:1.67762506px;line-height:125%;font-family:FreeSans;-inkscape-font-specification:'FreeSans, Normal';text-align:start;writing-mode:lr-tb;text-anchor:start;stroke-width:0.2;stroke-miterlimit:4;stroke-dasharray:none"
           y="497.37119"
           x="104.05949"
           sodipodi:role="line"
           id="tspan5058">update</tspan><tspan
           id="tspan5118"
           style="font-style:normal;font-variant:normal;font-weight:normal;font-stretch:normal;font-size:1.67762506px;line-height:125%;font-family:FreeSans;-inkscape-font-specification:'FreeSans, Normal';text-align:start;writing-mode:lr-tb;text-anchor:start;stroke-width:0.2;stroke-miterlimit:4;stroke-dasharray:none"
           y="499.46823"
           x="104.05949"
           sodipodi:role="line">draw</tspan><tspan
           id="tspan5122"
           style="font-style:normal;font-variant:normal;font-weight:normal;font-stretch:normal;font-size:1.67762506px;line-height:125%;font-family:FreeSans;-inkscape-font-specification:'FreeSans, Normal';text-align:start;writing-mode:lr-tb;text-anchor:start;stroke-width:0.2;stroke-miterlimit:4;stroke-dasharray:none"
           y="501.56528"
           x="104.05949"
           sodipodi:role="line">paused-p</tspan><tspan
           id="tspan5126"
           style="font-style:normal;font-variant:normal;font-weight:normal;font-stretch:normal;font-size:1.67762506px;line-height:125%;font-family:FreeSans;-inkscape-font-specification:'FreeSans, Normal';text-align:start;writing-mode:lr-tb;text-anchor:start;stroke-width:0.2;stroke-miterlimit:4;stroke-dasharray:none"
           y="503.66226"
           x="104.05949"
           sodipodi:role="line">cut</tspan><tspan
           id="tspan5128"
           style="font-style:normal;font-variant:normal;font-weight:normal;font-stretch:normal;font-size:1.67762506px;line-height:125%;font-family:FreeSans;-inkscape-font-specification:'FreeSans, Normal';text-align:start;writing-mode:lr-tb;text-anchor:start;stroke-width:0.2;stroke-miterlimit:4;stroke-dasharray:none"
           y="505.75931"
           x="104.05949"
           sodipodi:role="line">copy</tspan><tspan
           id="tspan5130"
           style="font-style:normal;font-variant:normal;font-weight:normal;font-stretch:normal;font-size:1.67762506px;line-height:125%;font-family:FreeSans;-inkscape-font-specification:'FreeSans, Normal';text-align:start;writing-mode:lr-tb;text-anchor:start;stroke-width:0.2;stroke-miterlimit:4;stroke-dasharray:none"
           y="507.85635"
           x="104.05949"
           sodipodi:role="line">paste</tspan><tspan
           id="tspan5132"
           style="font-style:normal;font-variant:normal;font-weight:normal;font-stretch:normal;font-size:1.67762506px;line-height:125%;font-family:FreeSans;-inkscape-font-specification:'FreeSans, Normal';text-align:start;writing-mode:lr-tb;text-anchor:start;stroke-width:0.2;stroke-miterlimit:4;stroke-dasharray:none"
           y="509.9534"
           x="104.05949"
           sodipodi:role="line">selection</tspan><tspan
           id="tspan5134"
           style="font-style:normal;font-variant:normal;font-weight:normal;font-stretch:normal;font-size:1.67762506px;line-height:125%;font-family:FreeSans;-inkscape-font-specification:'FreeSans, Normal';text-align:start;writing-mode:lr-tb;text-anchor:start;stroke-width:0.2;stroke-miterlimit:4;stroke-dasharray:none"
           y="512.05042"
           x="104.05949"
           sodipodi:role="line">open-shell</tspan><tspan
           style="font-style:normal;font-variant:normal;font-weight:normal;font-stretch:normal;font-size:1.67762506px;line-height:125%;font-family:FreeSans;-inkscape-font-specification:'FreeSans, Normal';text-align:start;writing-mode:lr-tb;text-anchor:start;stroke-width:0.2;stroke-miterlimit:4;stroke-dasharray:none"
           y="514.14746"
           x="104.05949"
           sodipodi:role="line"
           id="tspan5060">...</tspan></text>
      <path
         style="fill:none;fill-rule:evenodd;stroke:#000000;stroke-width:0.2;stroke-linecap:butt;stroke-linejoin:miter;stroke-miterlimit:4;stroke-dasharray:none;stroke-opacity:1"
         d="m 102.81139,480.2372 22.12212,-0.0432"
         id="path5197"
         inkscape:connector-type="polyline"
         inkscape:connector-curvature="0" />
      <path
         inkscape:connector-curvature="0"
         inkscape:connector-type="polyline"
         id="path5199"
         d="m 102.8763,494.38694 22.12212,-0.0432"
         style="fill:none;fill-rule:evenodd;stroke:#000000;stroke-width:0.2;stroke-linecap:butt;stroke-linejoin:miter;stroke-miterlimit:4;stroke-dasharray:none;stroke-opacity:1" />
    </g>
    <g
       id="g5113">
      <rect
         style="fill:#e3fffc;fill-opacity:1;fill-rule:evenodd;stroke:#000000;stroke-width:0.2;stroke-linecap:butt;stroke-linejoin:miter;stroke-miterlimit:4;stroke-dasharray:none;stroke-opacity:1"
         id="rect4684"
         width="22.070965"
         height="40.95554"
         x="102.91832"
         y="590.48792" />
      <text
         xml:space="preserve"
         style="font-style:normal;font-weight:normal;font-size:2.78673482px;line-height:125%;font-family:sans-serif;letter-spacing:0px;word-spacing:0px;fill:#000000;fill-opacity:1;stroke:none;stroke-width:0.2;stroke-linecap:butt;stroke-linejoin:miter;stroke-miterlimit:4;stroke-dasharray:none;stroke-opacity:1"
         x="109.5764"
         y="594.39154"
         id="text4686"
         sodipodi:linespacing="125%"><tspan
           id="tspan4750"
           sodipodi:role="line"
           x="109.5764"
           y="594.39154"
           style="font-style:normal;font-variant:normal;font-weight:normal;font-stretch:normal;font-family:FreeSans;-inkscape-font-specification:FreeSans;fill:#000000;fill-opacity:1;stroke-width:0.2;stroke-miterlimit:4;stroke-dasharray:none">Phrase</tspan></text>
      <path
         style="fill:none;fill-rule:evenodd;stroke:#000000;stroke-width:0.2;stroke-linecap:butt;stroke-linejoin:miter;stroke-miterlimit:4;stroke-dasharray:none;stroke-opacity:1"
         d="m 102.93718,596.18847 22.12212,-0.0432"
         id="path4690"
         inkscape:connector-type="polyline"
         inkscape:connector-curvature="0" />
      <text
         xml:space="preserve"
         style="font-style:normal;font-variant:normal;font-weight:normal;font-stretch:normal;font-size:1.67762506px;line-height:125%;font-family:FreeSans;-inkscape-font-specification:'FreeSans, Normal';text-align:start;letter-spacing:0px;word-spacing:0px;writing-mode:lr-tb;text-anchor:start;fill:#000000;fill-opacity:1;stroke:none;stroke-width:0.2;stroke-linecap:butt;stroke-linejoin:miter;stroke-miterlimit:4;stroke-dasharray:none;stroke-opacity:1"
         x="104.31636"
         y="599.18616"
         id="text4692"
         sodipodi:linespacing="125%"><tspan
           sodipodi:role="line"
           x="104.31636"
           y="599.18616"
           style="font-style:normal;font-variant:normal;font-weight:normal;font-stretch:normal;font-size:1.67762506px;line-height:125%;font-family:FreeSans;-inkscape-font-specification:'FreeSans, Normal';text-align:start;writing-mode:lr-tb;text-anchor:start;stroke-width:0.2;stroke-miterlimit:4;stroke-dasharray:none"
           id="tspan4704">orientation</tspan><tspan
           id="tspan4766"
           sodipodi:role="line"
           x="104.31636"
           y="601.2832"
           style="font-style:normal;font-variant:normal;font-weight:normal;font-stretch:normal;font-size:1.67762506px;line-height:125%;font-family:FreeSans;-inkscape-font-specification:'FreeSans, Normal';text-align:start;writing-mode:lr-tb;text-anchor:start;stroke-width:0.2;stroke-miterlimit:4;stroke-dasharray:none">inputs</tspan><tspan
           id="tspan4768"
           sodipodi:role="line"
           x="104.31636"
           y="603.38025"
           style="font-style:normal;font-variant:normal;font-weight:normal;font-stretch:normal;font-size:1.67762506px;line-height:125%;font-family:FreeSans;-inkscape-font-specification:'FreeSans, Normal';text-align:start;writing-mode:lr-tb;text-anchor:start;stroke-width:0.2;stroke-miterlimit:4;stroke-dasharray:none">results</tspan><tspan
           id="tspan4770"
           sodipodi:role="line"
           x="104.31636"
           y="605.47723"
           style="font-style:normal;font-variant:normal;font-weight:normal;font-stretch:normal;font-size:1.67762506px;line-height:125%;font-family:FreeSans;-inkscape-font-specification:'FreeSans, Normal';text-align:start;writing-mode:lr-tb;text-anchor:start;stroke-width:0.2;stroke-miterlimit:4;stroke-dasharray:none">frozen-p</tspan><tspan
           id="tspan4764"
           sodipodi:role="line"
           x="104.31636"
           y="607.57428"
           style="font-style:normal;font-variant:normal;font-weight:normal;font-stretch:normal;font-size:1.67762506px;line-height:125%;font-family:FreeSans;-inkscape-font-specification:'FreeSans, Normal';text-align:start;writing-mode:lr-tb;text-anchor:start;stroke-width:0.2;stroke-miterlimit:4;stroke-dasharray:none">... </tspan></text>
      <path
         inkscape:connector-curvature="0"
         inkscape:connector-type="polyline"
         id="path4706"
         d="m 102.81851,610.33821 22.12212,-0.0432"
         style="fill:none;fill-rule:evenodd;stroke:#000000;stroke-width:0.2;stroke-linecap:butt;stroke-linejoin:miter;stroke-miterlimit:4;stroke-dasharray:none;stroke-opacity:1" />
      <text
         sodipodi:linespacing="125%"
         id="text4708"
         y="613.33588"
         x="104.31636"
         style="font-style:normal;font-variant:normal;font-weight:normal;font-stretch:normal;font-size:1.67762506px;line-height:125%;font-family:FreeSans;-inkscape-font-specification:'FreeSans, Normal';text-align:start;letter-spacing:0px;word-spacing:0px;writing-mode:lr-tb;text-anchor:start;fill:#000000;fill-opacity:1;stroke:none;stroke-width:0.2;stroke-linecap:butt;stroke-linejoin:miter;stroke-miterlimit:4;stroke-dasharray:none;stroke-opacity:1"
         xml:space="preserve"><tspan
           style="font-style:normal;font-variant:normal;font-weight:normal;font-stretch:normal;font-size:1.67762506px;line-height:125%;font-family:FreeSans;-inkscape-font-specification:'FreeSans, Normal';text-align:start;writing-mode:lr-tb;text-anchor:start;stroke-width:0.2;stroke-miterlimit:4;stroke-dasharray:none"
           y="613.33588"
           x="104.31636"
           sodipodi:role="line"
           id="tspan4712">layout</tspan><tspan
           style="font-style:normal;font-variant:normal;font-weight:normal;font-stretch:normal;font-size:1.67762506px;line-height:125%;font-family:FreeSans;-inkscape-font-specification:'FreeSans, Normal';text-align:start;writing-mode:lr-tb;text-anchor:start;stroke-width:0.2;stroke-miterlimit:4;stroke-dasharray:none"
           y="615.43292"
           x="104.31636"
           sodipodi:role="line"
           id="tspan4716">update</tspan><tspan
           style="font-style:normal;font-variant:normal;font-weight:normal;font-stretch:normal;font-size:1.67762506px;line-height:125%;font-family:FreeSans;-inkscape-font-specification:'FreeSans, Normal';text-align:start;writing-mode:lr-tb;text-anchor:start;stroke-width:0.2;stroke-miterlimit:4;stroke-dasharray:none"
           y="617.52997"
           x="104.31636"
           sodipodi:role="line"
           id="tspan4718">destroy</tspan><tspan
           id="tspan4786"
           style="font-style:normal;font-variant:normal;font-weight:normal;font-stretch:normal;font-size:1.67762506px;line-height:125%;font-family:FreeSans;-inkscape-font-specification:'FreeSans, Normal';text-align:start;writing-mode:lr-tb;text-anchor:start;stroke-width:0.2;stroke-miterlimit:4;stroke-dasharray:none"
           y="619.62695"
           x="104.31636"
           sodipodi:role="line">freeze</tspan><tspan
           id="tspan4790"
           style="font-style:normal;font-variant:normal;font-weight:normal;font-stretch:normal;font-size:1.67762506px;line-height:125%;font-family:FreeSans;-inkscape-font-specification:'FreeSans, Normal';text-align:start;writing-mode:lr-tb;text-anchor:start;stroke-width:0.2;stroke-miterlimit:4;stroke-dasharray:none"
           y="621.724"
           x="104.31636"
           sodipodi:role="line">unfreeze</tspan><tspan
           id="tspan4792"
           style="font-style:normal;font-variant:normal;font-weight:normal;font-stretch:normal;font-size:1.67762506px;line-height:125%;font-family:FreeSans;-inkscape-font-specification:'FreeSans, Normal';text-align:start;writing-mode:lr-tb;text-anchor:start;stroke-width:0.2;stroke-miterlimit:4;stroke-dasharray:none"
           y="623.82104"
           x="104.31636"
           sodipodi:role="line">duplicate</tspan><tspan
           id="tspan4794"
           style="font-style:normal;font-variant:normal;font-weight:normal;font-stretch:normal;font-size:1.67762506px;line-height:125%;font-family:FreeSans;-inkscape-font-specification:'FreeSans, Normal';text-align:start;writing-mode:lr-tb;text-anchor:start;stroke-width:0.2;stroke-miterlimit:4;stroke-dasharray:none"
           y="625.91809"
           x="104.31636"
           sodipodi:role="line">evaluate</tspan><tspan
           id="tspan4796"
           style="font-style:normal;font-variant:normal;font-weight:normal;font-stretch:normal;font-size:1.67762506px;line-height:125%;font-family:FreeSans;-inkscape-font-specification:'FreeSans, Normal';text-align:start;writing-mode:lr-tb;text-anchor:start;stroke-width:0.2;stroke-miterlimit:4;stroke-dasharray:none"
           y="628.01508"
           x="104.31636"
           sodipodi:role="line">...</tspan></text>
    </g>
  </g>
</svg>
