<?xml version="1.0" encoding="UTF-8" standalone="no"?>
<!-- Created with Inkscape (http://www.inkscape.org/) -->

<svg
   xmlns:dc="http://purl.org/dc/elements/1.1/"
   xmlns:cc="http://creativecommons.org/ns#"
   xmlns:rdf="http://www.w3.org/1999/02/22-rdf-syntax-ns#"
   xmlns:svg="http://www.w3.org/2000/svg"
   xmlns="http://www.w3.org/2000/svg"
   xmlns:sodipodi="http://sodipodi.sourceforge.net/DTD/sodipodi-0.dtd"
   xmlns:inkscape="http://www.inkscape.org/namespaces/inkscape"
   width="210mm"
   height="297mm"
   viewBox="0 0 744.09448819 1052.3622047"
   id="svg2"
   version="1.1"
   inkscape:version="0.91 r13725"
   sodipodi:docname="class-diagram.svg"
   inkscape:export-filename="/home/dto/Desktop/class-diagram-raw.png"
   inkscape:export-xdpi="154.82001"
   inkscape:export-ydpi="154.82001">
  <defs
     id="defs4">
    <inkscape:perspective
       sodipodi:type="inkscape:persp3d"
       inkscape:vp_x="0 : 526.1811 : 1"
       inkscape:vp_y="0 : 1000 : 0"
       inkscape:vp_z="744.09449 : 526.1811 : 1"
       inkscape:persp3d-origin="372.04724 : 350.7874 : 1"
       id="perspective4288" />
  </defs>
  <sodipodi:namedview
     id="base"
     pagecolor="#ffffff"
     bordercolor="#666666"
     borderopacity="1.0"
     inkscape:pageopacity="0.0"
     inkscape:pageshadow="2"
     inkscape:zoom="1.4098697"
     inkscape:cx="419.31392"
     inkscape:cy="488.7469"
     inkscape:document-units="px"
     inkscape:current-layer="layer1"
     showgrid="false"
     inkscape:window-width="1920"
     inkscape:window-height="1029"
     inkscape:window-x="0"
     inkscape:window-y="25"
     inkscape:window-maximized="1"
     inkscape:snap-bbox="true"
     inkscape:snap-bbox-edge-midpoints="true"
     inkscape:snap-global="false" />
  <metadata
     id="metadata7">
    <rdf:RDF>
      <cc:Work
         rdf:about="">
        <dc:format>image/svg+xml</dc:format>
        <dc:type
           rdf:resource="http://purl.org/dc/dcmitype/StillImage" />
        <dc:title></dc:title>
      </cc:Work>
    </rdf:RDF>
  </metadata>
  <g
     inkscape:label="Layer 1"
     inkscape:groupmode="layer"
     id="layer1">
    <g
       id="g14251">
      <g
         inkscape:export-ydpi="154.82001"
         inkscape:export-xdpi="154.82001"
         inkscape:export-filename="/home/dto/Desktop/class-diagram.png"
         id="g9810">
        <g
           id="g9555">
          <flowRoot
             style="font-style:normal;font-weight:normal;font-size:40px;line-height:125%;font-family:sans-serif;letter-spacing:0px;word-spacing:0px;fill:#000000;fill-opacity:1;stroke:none;stroke-width:1px;stroke-linecap:butt;stroke-linejoin:miter;stroke-opacity:1"
             id="flowRoot3419"
             xml:space="preserve"><flowRegion
               id="flowRegion3421"><rect
                 y="553.43365"
                 x="111.42857"
                 height="61.785713"
                 width="203.92857"
                 id="rect3423" /></flowRegion><flowPara
               id="flowPara3425" /></flowRoot>          <flowRoot
             style="font-style:normal;font-weight:normal;font-size:40px;line-height:125%;font-family:sans-serif;letter-spacing:0px;word-spacing:0px;fill:#000000;fill-opacity:1;stroke:none;stroke-width:1px;stroke-linecap:butt;stroke-linejoin:miter;stroke-opacity:1"
             id="flowRoot3511"
             xml:space="preserve"><flowRegion
               id="flowRegion3513"><rect
                 y="427.36221"
                 x="224.28572"
                 height="52.5"
                 width="88.214287"
                 id="rect3515" /></flowRegion><flowPara
               id="flowPara3517" /></flowRoot>          <flowRoot
             xml:space="preserve"
             id="flowRoot4636"
             style="font-style:normal;font-weight:normal;font-size:40px;line-height:125%;font-family:sans-serif;letter-spacing:0px;word-spacing:0px;fill:#000000;fill-opacity:1;stroke:none;stroke-width:1px;stroke-linecap:butt;stroke-linejoin:miter;stroke-opacity:1"><flowRegion
               id="flowRegion4638"><rect
                 id="rect4640"
                 width="117.14286"
                 height="436.42856"
                 x="560.71429"
                 y="437.36221" /></flowRegion><flowPara
               id="flowPara4642" /></flowRoot>          <rect
             y="309.09116"
             x="24.124935"
             height="471.54538"
             width="696.3064"
             id="rect4853"
             style="fill:#ffffff;fill-opacity:1;stroke-width:0.2;stroke-miterlimit:4;stroke-dasharray:none" />
          <path
             inkscape:connector-curvature="0"
             style="fill:none;fill-rule:evenodd;stroke:#000000;stroke-width:0.17345625;stroke-linecap:butt;stroke-linejoin:miter;stroke-miterlimit:4;stroke-dasharray:1.38764996, 0.69382498;stroke-dashoffset:0;stroke-opacity:1"
             d="m 235.12873,435.80302 -30.69554,28.65482 0,20.67298 -0.0388,174.49775"
             id="path4666"
             sodipodi:nodetypes="cccc" />
          <g
             transform="matrix(1.2459151,0,0,1.2459151,27.828681,-192.81155)"
             id="g3495">
            <rect
               y="459.2749"
               x="143.83511"
               height="12.416002"
               width="45.590656"
               id="rect3470"
               style="fill:#fcffe3;fill-opacity:1;fill-rule:evenodd;stroke:#000000;stroke-width:0.40488034px;stroke-linecap:butt;stroke-linejoin:miter;stroke-opacity:1" />
            <text
               sodipodi:linespacing="125%"
               id="text3472"
               y="467.5444"
               x="155.42259"
               style="font-style:normal;font-weight:normal;font-size:5.67593908px;line-height:125%;font-family:sans-serif;letter-spacing:0px;word-spacing:0px;fill:#000000;fill-opacity:1;stroke:none;stroke-width:1px;stroke-linecap:butt;stroke-linejoin:miter;stroke-opacity:1"
               xml:space="preserve"><tspan
                 style="font-style:normal;font-variant:normal;font-weight:normal;font-stretch:normal;font-family:FreeSans;-inkscape-font-specification:FreeSans"
                 y="467.5444"
                 x="155.42259"
                 id="tspan3474"
                 sodipodi:role="line">Quadrille</tspan></text>
          </g>
          <rect
             style="fill:#e5ffd5;fill-opacity:1;fill-rule:evenodd;stroke:#000000;stroke-width:0.50444651px;stroke-linecap:butt;stroke-linejoin:miter;stroke-opacity:1"
             id="rect3502"
             width="56.802086"
             height="15.469285"
             x="207.03503"
             y="419.89819" />
          <text
             xml:space="preserve"
             style="font-style:normal;font-weight:normal;font-size:7.07173824px;line-height:125%;font-family:sans-serif;letter-spacing:0px;word-spacing:0px;fill:#000000;fill-opacity:1;stroke:none;stroke-width:1px;stroke-linecap:butt;stroke-linejoin:miter;stroke-opacity:1"
             x="226.93137"
             y="430.20129"
             id="text3504"
             sodipodi:linespacing="125%"><tspan
               sodipodi:role="line"
               id="tspan3506"
               x="226.93137"
               y="430.20129"
               style="font-style:normal;font-variant:normal;font-weight:normal;font-stretch:normal;font-family:FreeSans;-inkscape-font-specification:FreeSans;fill:#000000;fill-opacity:1">Node</tspan></text>
          <rect
             y="466.56219"
             x="106.34714"
             height="15.469285"
             width="56.802086"
             id="rect3526"
             style="fill:#e5ffd5;fill-opacity:1;fill-rule:evenodd;stroke:#000000;stroke-width:0.50444651px;stroke-linecap:butt;stroke-linejoin:miter;stroke-opacity:1" />
          <text
             sodipodi:linespacing="125%"
             id="text3528"
             y="476.8653"
             x="125.48238"
             style="font-style:normal;font-weight:normal;font-size:7.07173824px;line-height:125%;font-family:sans-serif;letter-spacing:0px;word-spacing:0px;fill:#000000;fill-opacity:1;stroke:none;stroke-width:1px;stroke-linecap:butt;stroke-linejoin:miter;stroke-opacity:1"
             xml:space="preserve"><tspan
               style="font-style:normal;font-variant:normal;font-weight:normal;font-stretch:normal;font-family:FreeSans;-inkscape-font-specification:FreeSans;fill:#000000;fill-opacity:1"
               y="476.8653"
               x="125.48238"
               id="tspan3530"
               sodipodi:role="line">Buffer</tspan></text>
          <path
             inkscape:connector-curvature="3"
             inkscape:connector-type="polyline"
             id="path4371"
             d="m 235.56081,395.1275 0,24.51851"
             style="fill:none;fill-rule:evenodd;stroke:#000000;stroke-width:0.24918303;stroke-linecap:butt;stroke-linejoin:miter;stroke-miterlimit:4;stroke-dasharray:none;stroke-opacity:1" />
          <path
             inkscape:connector-curvature="3"
             inkscape:connector-type="orthogonal"
             id="path4379"
             d="m 134.74818,395.1275 0,71.18249"
             style="fill:none;fill-rule:evenodd;stroke:#000000;stroke-width:0.24918303;stroke-linecap:butt;stroke-linejoin:miter;stroke-miterlimit:4;stroke-dasharray:none;stroke-opacity:1" />
          <path
             inkscape:connector-curvature="3"
             inkscape:connector-type="polyline"
             id="path4391"
             d="M 235.56081,435.61974 134.74818,466.30999"
             style="fill:none;fill-rule:evenodd;stroke:#000000;stroke-width:0.24918303;stroke-linecap:butt;stroke-linejoin:miter;stroke-miterlimit:4;stroke-dasharray:none;stroke-opacity:1" />
          <rect
             style="fill:#e3fffc;fill-opacity:1;fill-rule:evenodd;stroke:#000000;stroke-width:0.50444651px;stroke-linecap:butt;stroke-linejoin:miter;stroke-opacity:1"
             id="rect4395"
             width="56.802086"
             height="15.469285"
             x="207.03503"
             y="467.05969" />
          <text
             xml:space="preserve"
             style="font-style:normal;font-weight:normal;font-size:7.07173824px;line-height:125%;font-family:sans-serif;letter-spacing:0px;word-spacing:0px;fill:#000000;fill-opacity:1;stroke:none;stroke-width:1px;stroke-linecap:butt;stroke-linejoin:miter;stroke-opacity:1"
             x="224.3278"
             y="477.36276"
             id="text4397"
             sodipodi:linespacing="125%"><tspan
               sodipodi:role="line"
               id="tspan4399"
               x="224.3278"
               y="477.36276"
               style="font-style:normal;font-variant:normal;font-weight:normal;font-stretch:normal;font-family:FreeSans;-inkscape-font-specification:FreeSans;fill:#000000;fill-opacity:1">Phrase</tspan></text>
          <path
             style="fill:none;fill-rule:evenodd;stroke:#000000;stroke-width:0.37377456;stroke-linecap:butt;stroke-linejoin:miter;stroke-miterlimit:4;stroke-dasharray:none;stroke-opacity:1"
             d="m 235.43608,435.61972 -1e-5,30.69027"
             id="path4403"
             inkscape:connector-type="polyline"
             inkscape:connector-curvature="3" />
          <rect
             y="519.43805"
             x="101.28552"
             height="15.469285"
             width="56.802086"
             id="rect4414"
             style="fill:#e3fffc;fill-opacity:1;fill-rule:evenodd;stroke:#000000;stroke-width:0.50444651px;stroke-linecap:butt;stroke-linejoin:miter;stroke-opacity:1" />
          <text
             sodipodi:linespacing="125%"
             id="text4416"
             y="529.74115"
             x="122.50502"
             style="font-style:normal;font-weight:normal;font-size:7.07173824px;line-height:125%;font-family:sans-serif;letter-spacing:0px;word-spacing:0px;fill:#000000;fill-opacity:1;stroke:none;stroke-width:1px;stroke-linecap:butt;stroke-linejoin:miter;stroke-opacity:1"
             xml:space="preserve"><tspan
               style="font-style:normal;font-variant:normal;font-weight:normal;font-stretch:normal;font-family:FreeSans;-inkscape-font-specification:FreeSans"
               y="529.74115"
               x="122.50502"
               id="tspan4418"
               sodipodi:role="line">Tree</tspan></text>
          <rect
             style="fill:#edc7ee;fill-opacity:1;fill-rule:evenodd;stroke:#000000;stroke-width:0.50444651px;stroke-linecap:butt;stroke-linejoin:miter;stroke-opacity:1"
             id="rect4422"
             width="56.802086"
             height="15.469285"
             x="253.02957"
             y="611.18317" />
          <text
             xml:space="preserve"
             style="font-style:normal;font-weight:normal;font-size:7.07173824px;line-height:125%;font-family:sans-serif;letter-spacing:0px;word-spacing:0px;fill:#000000;fill-opacity:1;stroke:none;stroke-width:1px;stroke-linecap:butt;stroke-linejoin:miter;stroke-opacity:1"
             x="271.28232"
             y="621.48627"
             id="text4424"
             sodipodi:linespacing="125%"><tspan
               sodipodi:role="line"
               id="tspan4426"
               x="271.28232"
               y="621.48627"
               style="font-style:normal;font-variant:normal;font-weight:normal;font-stretch:normal;font-family:FreeSans;-inkscape-font-specification:FreeSans">Frame</tspan></text>
          <rect
             y="611.18311"
             x="396.92047"
             height="15.469285"
             width="56.802086"
             id="rect4430"
             style="fill:#edc7ee;fill-opacity:1;fill-rule:evenodd;stroke:#000000;stroke-width:0.50444651px;stroke-linecap:butt;stroke-linejoin:miter;stroke-opacity:1" />
          <text
             sodipodi:linespacing="125%"
             id="text4432"
             y="621.48621"
             x="411.07791"
             style="font-style:normal;font-weight:normal;font-size:7.07173824px;line-height:125%;font-family:sans-serif;letter-spacing:0px;word-spacing:0px;fill:#000000;fill-opacity:1;stroke:none;stroke-width:1px;stroke-linecap:butt;stroke-linejoin:miter;stroke-opacity:1"
             xml:space="preserve"><tspan
               style="font-style:normal;font-variant:normal;font-weight:normal;font-stretch:normal;font-family:FreeSans;-inkscape-font-specification:FreeSans"
               y="621.48621"
               x="411.07791"
               id="tspan4434"
               sodipodi:role="line">Modeline</tspan></text>
          <rect
             style="fill:#e3fffc;fill-opacity:1;fill-rule:evenodd;stroke:#000000;stroke-width:0.50444651px;stroke-linecap:butt;stroke-linejoin:miter;stroke-opacity:1"
             id="rect4438"
             width="56.802086"
             height="15.469285"
             x="63.949615"
             y="553.18896" />
          <text
             xml:space="preserve"
             style="font-style:normal;font-weight:normal;font-size:7.07173824px;line-height:125%;font-family:sans-serif;letter-spacing:0px;word-spacing:0px;fill:#000000;fill-opacity:1;stroke:none;stroke-width:1px;stroke-linecap:butt;stroke-linejoin:miter;stroke-opacity:1"
             x="83.606392"
             y="563.492"
             id="text4440"
             sodipodi:linespacing="125%"><tspan
               sodipodi:role="line"
               id="tspan4442"
               x="83.606392"
               y="563.492"
               style="font-style:normal;font-variant:normal;font-weight:normal;font-stretch:normal;font-family:FreeSans;-inkscape-font-specification:FreeSans">Menu</tspan></text>
          <rect
             y="611.18317"
             x="468.86591"
             height="15.469285"
             width="56.802086"
             id="rect4446"
             style="fill:#edc7ee;fill-opacity:1;fill-rule:evenodd;stroke:#000000;stroke-width:0.50444651px;stroke-linecap:butt;stroke-linejoin:miter;stroke-opacity:1" />
          <text
             sodipodi:linespacing="125%"
             id="text4448"
             y="621.48621"
             x="485.50531"
             style="font-style:normal;font-weight:normal;font-size:7.07173824px;line-height:125%;font-family:sans-serif;letter-spacing:0px;word-spacing:0px;fill:#000000;fill-opacity:1;stroke:none;stroke-width:1px;stroke-linecap:butt;stroke-linejoin:miter;stroke-opacity:1"
             xml:space="preserve"><tspan
               style="font-style:normal;font-variant:normal;font-weight:normal;font-stretch:normal;font-family:FreeSans;-inkscape-font-specification:FreeSans"
               y="621.48621"
               x="485.50531"
               id="tspan4450"
               sodipodi:role="line">Titlebar</tspan></text>
          <rect
             style="fill:#e3fffc;fill-opacity:1;fill-rule:evenodd;stroke:#000000;stroke-width:0.50444651px;stroke-linecap:butt;stroke-linejoin:miter;stroke-opacity:1"
             id="rect4454"
             width="56.802086"
             height="15.469285"
             x="136.73042"
             y="553.18896"
             inkscape:connector-avoid="true" />
          <text
             xml:space="preserve"
             style="font-style:normal;font-weight:normal;font-size:7.07173824px;line-height:125%;font-family:sans-serif;letter-spacing:0px;word-spacing:0px;fill:#000000;fill-opacity:1;stroke:none;stroke-width:1px;stroke-linecap:butt;stroke-linejoin:miter;stroke-opacity:1"
             x="151.17654"
             y="563.49207"
             id="text4456"
             sodipodi:linespacing="125%"><tspan
               sodipodi:role="line"
               id="tspan4458"
               x="151.17654"
               y="563.49207"
               style="font-style:normal;font-variant:normal;font-weight:normal;font-stretch:normal;font-family:FreeSans;-inkscape-font-specification:FreeSans">Menubar</tspan></text>
          <rect
             y="611.18317"
             x="540.8114"
             height="15.469285"
             width="56.802086"
             id="rect4462"
             style="fill:#edc7ee;fill-opacity:1;fill-rule:evenodd;stroke:#000000;stroke-width:0.50444651px;stroke-linecap:butt;stroke-linejoin:miter;stroke-opacity:1" />
          <text
             sodipodi:linespacing="125%"
             id="text4464"
             y="621.48627"
             x="561.63446"
             style="font-style:normal;font-weight:normal;font-size:7.07173824px;line-height:125%;font-family:sans-serif;letter-spacing:0px;word-spacing:0px;fill:#000000;fill-opacity:1;stroke:none;stroke-width:1px;stroke-linecap:butt;stroke-linejoin:miter;stroke-opacity:1"
             xml:space="preserve"><tspan
               style="font-style:normal;font-variant:normal;font-weight:normal;font-stretch:normal;font-family:FreeSans;-inkscape-font-specification:FreeSans"
               y="621.48627"
               x="561.63446"
               id="tspan4466"
               sodipodi:role="line">Shell</tspan></text>
          <rect
             style="fill:#edc7ee;fill-opacity:1;fill-rule:evenodd;stroke:#000000;stroke-width:0.50444651px;stroke-linecap:butt;stroke-linejoin:miter;stroke-opacity:1"
             id="rect4470"
             width="56.802086"
             height="15.469285"
             x="324.97504"
             y="611.18311" />
          <text
             xml:space="preserve"
             style="font-style:normal;font-weight:normal;font-size:7.07173824px;line-height:125%;font-family:sans-serif;letter-spacing:0px;word-spacing:0px;fill:#000000;fill-opacity:1;stroke:none;stroke-width:1px;stroke-linecap:butt;stroke-linejoin:miter;stroke-opacity:1"
             x="343.54309"
             y="621.48621"
             id="text4472"
             sodipodi:linespacing="125%"><tspan
               sodipodi:role="line"
               id="tspan4474"
               x="343.54309"
               y="621.48621"
               style="font-style:normal;font-variant:normal;font-weight:normal;font-stretch:normal;font-family:FreeSans;-inkscape-font-specification:FreeSans">Dialog</tspan></text>
          <rect
             y="467.05969"
             x="592.69934"
             height="15.469285"
             width="56.802086"
             id="rect4414-1"
             style="fill:#e3fffc;fill-opacity:1;fill-rule:evenodd;stroke:#000000;stroke-width:0.50444651px;stroke-linecap:butt;stroke-linejoin:miter;stroke-opacity:1" />
          <text
             sodipodi:linespacing="125%"
             id="text4416-4"
             y="477.36273"
             x="609.67041"
             style="font-style:normal;font-weight:normal;font-size:7.07173824px;line-height:125%;font-family:sans-serif;letter-spacing:0px;word-spacing:0px;fill:#000000;fill-opacity:1;stroke:none;stroke-width:1px;stroke-linecap:butt;stroke-linejoin:miter;stroke-opacity:1"
             xml:space="preserve"><tspan
               style="font-style:normal;font-variant:normal;font-weight:normal;font-stretch:normal;font-family:FreeSans;-inkscape-font-specification:FreeSans"
               y="477.36273"
               x="609.67041"
               sodipodi:role="line"
               id="tspan4632">Prompt</tspan></text>
          <rect
             style="fill:#e3fffc;fill-opacity:1;fill-rule:evenodd;stroke:#000000;stroke-width:0.50444651px;stroke-linecap:butt;stroke-linejoin:miter;stroke-opacity:1"
             id="rect4422-5"
             width="56.802086"
             height="15.469285"
             x="560.54272"
             y="508.94623" />
          <text
             xml:space="preserve"
             style="font-style:normal;font-weight:normal;font-size:7.07173824px;line-height:125%;font-family:sans-serif;letter-spacing:0px;word-spacing:0px;fill:#000000;fill-opacity:1;stroke:none;stroke-width:1px;stroke-linecap:butt;stroke-linejoin:miter;stroke-opacity:1"
             x="580.70782"
             y="519.24933"
             id="text4424-9"
             sodipodi:linespacing="125%"><tspan
               sodipodi:role="line"
               id="tspan4426-1"
               x="580.70782"
               y="519.24933"
               style="font-style:normal;font-variant:normal;font-weight:normal;font-stretch:normal;font-family:FreeSans;-inkscape-font-specification:FreeSans">Entry</tspan></text>
          <rect
             y="508.9462"
             x="625.422"
             height="15.469285"
             width="56.802086"
             id="rect4430-3"
             style="fill:#e3fffc;fill-opacity:1;fill-rule:evenodd;stroke:#000000;stroke-width:0.50444651px;stroke-linecap:butt;stroke-linejoin:miter;stroke-opacity:1" />
          <text
             sodipodi:linespacing="125%"
             id="text4432-9"
             y="519.24927"
             x="634.01184"
             style="font-style:normal;font-weight:normal;font-size:7.07173824px;line-height:125%;font-family:sans-serif;letter-spacing:0px;word-spacing:0px;fill:#000000;fill-opacity:1;stroke:none;stroke-width:1px;stroke-linecap:butt;stroke-linejoin:miter;stroke-opacity:1"
             xml:space="preserve"><tspan
               style="font-style:normal;font-variant:normal;font-weight:normal;font-stretch:normal;font-family:FreeSans;-inkscape-font-specification:FreeSans"
               y="519.24927"
               x="634.01184"
               id="tspan4434-5"
               sodipodi:role="line">Shell-prompt</tspan></text>
          <rect
             style="fill:#e3fffc;fill-opacity:1;fill-rule:evenodd;stroke:#000000;stroke-width:0.50444651px;stroke-linecap:butt;stroke-linejoin:miter;stroke-opacity:1"
             id="rect4438-5"
             width="56.802086"
             height="15.469285"
             x="464.14456"
             y="467.05969" />
          <text
             xml:space="preserve"
             style="font-style:normal;font-weight:normal;font-size:7.07173824px;line-height:125%;font-family:sans-serif;letter-spacing:0px;word-spacing:0px;fill:#000000;fill-opacity:1;stroke:none;stroke-width:1px;stroke-linecap:butt;stroke-linejoin:miter;stroke-opacity:1"
             x="485.25281"
             y="477.36273"
             id="text4440-9"
             sodipodi:linespacing="125%"><tspan
               sodipodi:role="line"
               id="tspan4442-6"
               x="485.25281"
               y="477.36273"
               style="font-style:normal;font-variant:normal;font-weight:normal;font-stretch:normal;font-family:FreeSans;-inkscape-font-specification:FreeSans">Halo</tspan></text>
          <rect
             y="467.05969"
             x="528.422"
             height="15.469285"
             width="56.802086"
             id="rect4446-2"
             style="fill:#e3fffc;fill-opacity:1;fill-rule:evenodd;stroke:#000000;stroke-width:0.50444651px;stroke-linecap:butt;stroke-linejoin:miter;stroke-opacity:1" />
          <text
             sodipodi:linespacing="125%"
             id="text4448-9"
             y="477.36273"
             x="545.65955"
             style="font-style:normal;font-weight:normal;font-size:7.07173824px;line-height:125%;font-family:sans-serif;letter-spacing:0px;word-spacing:0px;fill:#000000;fill-opacity:1;stroke:none;stroke-width:1px;stroke-linecap:butt;stroke-linejoin:miter;stroke-opacity:1"
             xml:space="preserve"><tspan
               style="font-style:normal;font-variant:normal;font-weight:normal;font-stretch:normal;font-family:FreeSans;-inkscape-font-specification:FreeSans"
               y="477.36273"
               x="545.65955"
               id="tspan4450-9"
               sodipodi:role="line">Handle</tspan></text>
          <rect
             style="fill:#e3fffc;fill-opacity:1;fill-rule:evenodd;stroke:#000000;stroke-width:0.50444651px;stroke-linecap:butt;stroke-linejoin:miter;stroke-opacity:1"
             id="rect4454-4"
             width="56.802086"
             height="15.469285"
             x="399.86719"
             y="467.05969" />
          <text
             xml:space="preserve"
             style="font-style:normal;font-weight:normal;font-size:7.07173824px;line-height:125%;font-family:sans-serif;letter-spacing:0px;word-spacing:0px;fill:#000000;fill-opacity:1;stroke:none;stroke-width:1px;stroke-linecap:butt;stroke-linejoin:miter;stroke-opacity:1"
             x="421.43488"
             y="477.36273"
             id="text4456-1"
             sodipodi:linespacing="125%"><tspan
               sodipodi:role="line"
               id="tspan4458-6"
               x="421.43488"
               y="477.36273"
               style="font-style:normal;font-variant:normal;font-weight:normal;font-stretch:normal;font-family:FreeSans;-inkscape-font-specification:FreeSans">Text</tspan></text>
          <rect
             y="467.05969"
             x="335.58978"
             height="15.469285"
             width="56.802086"
             id="rect4462-6"
             style="fill:#e3fffc;fill-opacity:1;fill-rule:evenodd;stroke:#000000;stroke-width:0.50444651px;stroke-linecap:butt;stroke-linejoin:miter;stroke-opacity:1" />
          <text
             sodipodi:linespacing="125%"
             id="text4464-9"
             y="477.36282"
             x="348.12802"
             style="font-style:normal;font-weight:normal;font-size:7.07173824px;line-height:125%;font-family:sans-serif;letter-spacing:0px;word-spacing:0px;fill:#000000;fill-opacity:1;stroke:none;stroke-width:1px;stroke-linecap:butt;stroke-linejoin:miter;stroke-opacity:1"
             xml:space="preserve"><tspan
               style="font-style:normal;font-variant:normal;font-weight:normal;font-stretch:normal;font-family:FreeSans;-inkscape-font-specification:FreeSans"
               y="477.36282"
               x="348.12802"
               id="tspan4466-2"
               sodipodi:role="line">Command</tspan></text>
          <rect
             style="fill:#e3fffc;fill-opacity:1;fill-rule:evenodd;stroke:#000000;stroke-width:0.50444651px;stroke-linecap:butt;stroke-linejoin:miter;stroke-opacity:1"
             id="rect4470-7"
             width="56.802086"
             height="15.469285"
             x="271.31241"
             y="467.05969" />
          <text
             xml:space="preserve"
             style="font-style:normal;font-weight:normal;font-size:7.07173824px;line-height:125%;font-family:sans-serif;letter-spacing:0px;word-spacing:0px;fill:#000000;fill-opacity:1;stroke:none;stroke-width:1px;stroke-linecap:butt;stroke-linejoin:miter;stroke-opacity:1"
             x="289.63635"
             y="477.36273"
             id="text4472-0"
             sodipodi:linespacing="125%"><tspan
               sodipodi:role="line"
               id="tspan4474-5"
               x="289.63635"
               y="477.36273"
               style="font-style:normal;font-variant:normal;font-weight:normal;font-stretch:normal;font-family:FreeSans;-inkscape-font-specification:FreeSans">Button</tspan></text>
          <rect
             y="379.56299"
             x="106.34714"
             height="15.469285"
             width="56.802086"
             id="rect3405"
             style="fill:#fcffe3;fill-opacity:1;fill-rule:evenodd;stroke:#000000;stroke-width:0.50444651px;stroke-linecap:butt;stroke-linejoin:miter;stroke-opacity:1" />
          <text
             sodipodi:linespacing="125%"
             id="text3407"
             y="389.55209"
             x="122.85451"
             style="font-style:normal;font-weight:normal;font-size:7.07173824px;line-height:125%;font-family:sans-serif;letter-spacing:0px;word-spacing:0px;fill:#000000;fill-opacity:1;stroke:none;stroke-width:1px;stroke-linecap:butt;stroke-linejoin:miter;stroke-opacity:1"
             xml:space="preserve"><tspan
               style="font-style:normal;font-variant:normal;font-weight:normal;font-stretch:normal;font-family:FreeSans;-inkscape-font-specification:FreeSans;fill:#000000;fill-opacity:1"
               y="389.55209"
               x="122.85451"
               id="tspan3409"
               sodipodi:role="line">QBuffer</tspan></text>
          <path
             inkscape:connector-curvature="0"
             sodipodi:nodetypes="cc"
             id="path4859"
             d="m 235.43607,435.61974 63.1399,12.56673"
             style="display:inline;fill:none;fill-rule:evenodd;stroke:#000000;stroke-width:0.24918303;stroke-linecap:butt;stroke-linejoin:miter;stroke-miterlimit:4;stroke-dasharray:none;stroke-opacity:1" />
          <path
             inkscape:connector-curvature="0"
             sodipodi:nodetypes="cc"
             id="path4861"
             d="m 618.92715,448.66305 -320.357,-0.4494"
             style="fill:none;fill-rule:evenodd;stroke:#000000;stroke-width:0.24918303;stroke-linecap:butt;stroke-linejoin:miter;stroke-miterlimit:4;stroke-dasharray:none;stroke-opacity:1" />
          <path
             inkscape:connector-curvature="3"
             inkscape:connector-type="polyline"
             id="path4873"
             d="m 298.51717,447.90388 0.0787,18.87845"
             style="fill:none;fill-rule:evenodd;stroke:#000000;stroke-width:0.24918303;stroke-linecap:butt;stroke-linejoin:miter;stroke-miterlimit:4;stroke-dasharray:none;stroke-opacity:1" />
          <path
             sodipodi:nodetypes="cc"
             inkscape:connector-curvature="3"
             inkscape:connector-type="polyline"
             id="path4877"
             d="m 363.73703,448.32932 0.22248,18.63311"
             style="fill:none;fill-rule:evenodd;stroke:#000000;stroke-width:0.24918303;stroke-linecap:butt;stroke-linejoin:miter;stroke-miterlimit:4;stroke-dasharray:none;stroke-opacity:1" />
          <path
             style="fill:none;fill-rule:evenodd;stroke:#000000;stroke-width:0.24918303;stroke-linecap:butt;stroke-linejoin:miter;stroke-miterlimit:4;stroke-dasharray:none;stroke-opacity:1"
             d="m 428.70261,448.32932 0.0651,18.55445"
             id="path4879"
             inkscape:connector-type="polyline"
             inkscape:connector-curvature="3"
             sodipodi:nodetypes="cc" />
          <path
             sodipodi:nodetypes="cc"
             inkscape:connector-curvature="3"
             inkscape:connector-type="polyline"
             id="path4881"
             d="m 492.55576,448.77428 0.0651,18.55446"
             style="fill:none;fill-rule:evenodd;stroke:#000000;stroke-width:0.24918303;stroke-linecap:butt;stroke-linejoin:miter;stroke-miterlimit:4;stroke-dasharray:none;stroke-opacity:1" />
          <path
             style="fill:none;fill-rule:evenodd;stroke:#000000;stroke-width:0.24918303;stroke-linecap:butt;stroke-linejoin:miter;stroke-miterlimit:4;stroke-dasharray:none;stroke-opacity:1"
             d="m 557.37182,448.77428 0.0651,18.55446"
             id="path4883"
             inkscape:connector-type="polyline"
             inkscape:connector-curvature="3"
             sodipodi:nodetypes="cc" />
          <path
             sodipodi:nodetypes="cc"
             inkscape:connector-curvature="3"
             inkscape:connector-type="polyline"
             id="path4885"
             d="m 618.80549,448.57764 0.0651,18.55445"
             style="fill:none;fill-rule:evenodd;stroke:#000000;stroke-width:0.24918303;stroke-linecap:butt;stroke-linejoin:miter;stroke-miterlimit:4;stroke-dasharray:none;stroke-opacity:1" />
          <path
             inkscape:connector-curvature="3"
             inkscape:connector-type="polyline"
             id="path4889"
             d="m 621.10037,482.78121 -32.15662,25.91278"
             style="fill:none;fill-rule:evenodd;stroke:#000000;stroke-width:0.24918303;stroke-linecap:butt;stroke-linejoin:miter;stroke-miterlimit:4;stroke-dasharray:none;stroke-opacity:1" />
          <path
             inkscape:connector-curvature="3"
             inkscape:connector-type="polyline"
             id="path4891"
             d="m 621.10037,482.78121 32.72268,25.91278"
             style="fill:none;fill-rule:evenodd;stroke:#000000;stroke-width:0.24918303;stroke-linecap:butt;stroke-linejoin:miter;stroke-miterlimit:4;stroke-dasharray:none;stroke-opacity:1" />
          <path
             inkscape:connector-curvature="3"
             inkscape:connector-type="polyline"
             id="path4897"
             d="m 235.43608,482.78121 -105.7495,36.40467"
             style="fill:none;fill-rule:evenodd;stroke:#000000;stroke-width:0.24918303;stroke-linecap:butt;stroke-linejoin:miter;stroke-miterlimit:4;stroke-dasharray:none;stroke-opacity:1" />
          <path
             inkscape:connector-curvature="3"
             inkscape:connector-type="polyline"
             id="path4899"
             d="m 129.68658,535.15961 35.4449,17.77713"
             style="fill:none;fill-rule:evenodd;stroke:#000000;stroke-width:0.24918303;stroke-linecap:butt;stroke-linejoin:miter;stroke-miterlimit:4;stroke-dasharray:none;stroke-opacity:1" />
          <path
             inkscape:connector-curvature="3"
             inkscape:connector-type="polyline"
             id="path4901"
             d="M 129.68658,535.15961 92.350677,552.93674"
             style="fill:none;fill-rule:evenodd;stroke:#000000;stroke-width:0.24918303;stroke-linecap:butt;stroke-linejoin:miter;stroke-miterlimit:4;stroke-dasharray:none;stroke-opacity:1" />
          <path
             id="path4907"
             d="m 235.43608,482.78121 43.98354,83.55957"
             style="fill:none;fill-rule:evenodd;stroke:#000000;stroke-width:0.24918303;stroke-linecap:butt;stroke-linejoin:miter;stroke-miterlimit:4;stroke-dasharray:none;stroke-opacity:1"
             sodipodi:nodetypes="cc"
             inkscape:connector-curvature="3" />
          <path
             inkscape:connector-curvature="3"
             sodipodi:nodetypes="cc"
             id="path4911"
             d="m 278.90889,566.35291 290.24633,-0.0719"
             style="fill:none;fill-rule:evenodd;stroke:#000000;stroke-width:0.24918303;stroke-linecap:butt;stroke-linejoin:miter;stroke-miterlimit:4;stroke-dasharray:none;stroke-opacity:1" />
          <path
             inkscape:connector-curvature="0"
             sodipodi:nodetypes="cc"
             id="path4915"
             d="m 569.26646,566.28099 -0.054,44.64993"
             style="fill:none;fill-rule:evenodd;stroke:#000000;stroke-width:0.24918303;stroke-linecap:butt;stroke-linejoin:miter;stroke-miterlimit:4;stroke-dasharray:none;stroke-opacity:1" />
          <path
             inkscape:connector-curvature="0"
             style="fill:none;fill-rule:evenodd;stroke:#000000;stroke-width:0.24918303;stroke-linecap:butt;stroke-linejoin:miter;stroke-miterlimit:4;stroke-dasharray:none;stroke-opacity:1"
             d="m 497.29401,566.28085 -0.054,44.64994"
             id="path4932"
             sodipodi:nodetypes="cc" />
          <path
             sodipodi:nodetypes="cc"
             id="path4934"
             d="m 425.34855,566.28084 -0.054,44.64993"
             style="fill:none;fill-rule:evenodd;stroke:#000000;stroke-width:0.24918303;stroke-linecap:butt;stroke-linejoin:miter;stroke-miterlimit:4;stroke-dasharray:none;stroke-opacity:1"
             inkscape:connector-curvature="0" />
          <path
             inkscape:connector-curvature="0"
             style="fill:none;fill-rule:evenodd;stroke:#000000;stroke-width:0.24918303;stroke-linecap:butt;stroke-linejoin:miter;stroke-miterlimit:4;stroke-dasharray:none;stroke-opacity:1"
             d="m 353.40312,566.28084 -0.054,44.64993"
             id="path4936"
             sodipodi:nodetypes="cc" />
          <path
             inkscape:connector-curvature="0"
             inkscape:connector-type="polyline"
             id="path5534"
             d="m 299.71347,482.78121 0.17041,16.16342"
             style="fill:none;fill-rule:evenodd;stroke:#000000;stroke-width:0.24918303;stroke-linecap:butt;stroke-linejoin:miter;stroke-miterlimit:4;stroke-dasharray:none;stroke-opacity:1"
             sodipodi:nodetypes="cc" />
          <path
             inkscape:connector-curvature="0"
             inkscape:connector-type="polyline"
             id="path5536"
             d="m 363.99084,482.78121 -0.0313,15.27348"
             style="fill:none;fill-rule:evenodd;stroke:#000000;stroke-width:0.24918303;stroke-linecap:butt;stroke-linejoin:miter;stroke-miterlimit:4;stroke-dasharray:none;stroke-opacity:1" />
          <path
             inkscape:connector-curvature="0"
             inkscape:connector-type="polyline"
             id="path5538"
             d="m 588.94375,524.66773 0.17043,14.32417"
             style="fill:none;fill-rule:evenodd;stroke:#000000;stroke-width:0.24918303;stroke-linecap:butt;stroke-linejoin:miter;stroke-miterlimit:4;stroke-dasharray:none;stroke-opacity:1" />
          <circle
             r="1.2585644"
             cy="503.03629"
             cx="296.57361"
             id="path5540"
             style="fill:#000000;fill-opacity:1;stroke-width:0.2;stroke-miterlimit:4;stroke-dasharray:none" />
          <circle
             style="fill:#000000;fill-opacity:1;stroke-width:0.2;stroke-miterlimit:4;stroke-dasharray:none"
             id="circle5542"
             cx="303.18106"
             cy="503.03629"
             r="1.2585644" />
          <circle
             r="1.2585644"
             cy="503.03629"
             cx="299.87735"
             id="circle5544"
             style="fill:#000000;fill-opacity:1;stroke-width:0.2;stroke-miterlimit:4;stroke-dasharray:none" />
          <circle
             style="fill:#000000;fill-opacity:1;stroke-width:0.2;stroke-miterlimit:4;stroke-dasharray:none"
             id="circle5553"
             cx="360.44574"
             cy="502.40701"
             r="1.2585644" />
          <circle
             r="1.2585644"
             cy="502.40701"
             cx="367.05322"
             id="circle5555"
             style="fill:#000000;fill-opacity:1;stroke-width:0.2;stroke-miterlimit:4;stroke-dasharray:none" />
          <circle
             style="fill:#000000;fill-opacity:1;stroke-width:0.2;stroke-miterlimit:4;stroke-dasharray:none"
             id="circle5557"
             cx="363.74948"
             cy="502.40701"
             r="1.2585644" />
          <circle
             r="1.2585644"
             cy="542.05176"
             cx="585.72876"
             id="circle5561"
             style="fill:#000000;fill-opacity:1;stroke-width:0.2;stroke-miterlimit:4;stroke-dasharray:none" />
          <circle
             style="fill:#000000;fill-opacity:1;stroke-width:0.2;stroke-miterlimit:4;stroke-dasharray:none"
             id="circle5563"
             cx="592.33624"
             cy="542.05176"
             r="1.2585644" />
          <circle
             r="1.2585644"
             cy="542.05176"
             cx="589.03247"
             id="circle5565"
             style="fill:#000000;fill-opacity:1;stroke-width:0.2;stroke-miterlimit:4;stroke-dasharray:none" />
          <text
             sodipodi:linespacing="125%"
             id="text4290"
             y="375.22339"
             x="208.18295"
             style="font-style:normal;font-weight:normal;font-size:40.40678024px;line-height:125%;font-family:sans-serif;letter-spacing:0px;word-spacing:0px;fill:#000000;fill-opacity:1;stroke:none;stroke-width:1px;stroke-linecap:butt;stroke-linejoin:miter;stroke-opacity:1"
             xml:space="preserve"><tspan
               style="font-style:italic;font-variant:normal;font-weight:normal;font-stretch:normal;font-size:5.05084753px;line-height:125%;font-family:FreeSans;-inkscape-font-specification:'FreeSans, Italic';text-align:start;writing-mode:lr-tb;text-anchor:start"
               id="tspan4294"
               y="375.22339"
               x="208.18295"
               sodipodi:role="line">base class for collidables</tspan></text>
          <text
             xml:space="preserve"
             style="font-style:normal;font-weight:normal;font-size:40.40678024px;line-height:125%;font-family:sans-serif;letter-spacing:0px;word-spacing:0px;fill:#000000;fill-opacity:1;stroke:none;stroke-width:1px;stroke-linecap:butt;stroke-linejoin:miter;stroke-opacity:1"
             x="92.71331"
             y="375.22339"
             id="text4298"
             sodipodi:linespacing="125%"><tspan
               sodipodi:role="line"
               x="92.71331"
               y="375.22339"
               id="tspan4300"
               style="font-style:italic;font-variant:normal;font-weight:normal;font-stretch:normal;font-size:5.05084753px;line-height:125%;font-family:FreeSans;-inkscape-font-specification:'FreeSans, Italic';text-align:start;writing-mode:lr-tb;text-anchor:start">base class for Quadtree collision detection</tspan></text>
          <text
             xml:space="preserve"
             style="font-style:normal;font-weight:normal;font-size:40.40678024px;line-height:125%;font-family:sans-serif;letter-spacing:0px;word-spacing:0px;fill:#000000;fill-opacity:1;stroke:none;stroke-width:1px;stroke-linecap:butt;stroke-linejoin:miter;stroke-opacity:1"
             x="167.51089"
             y="425.9238"
             id="text4312"
             sodipodi:linespacing="125%"><tspan
               sodipodi:role="line"
               x="167.51089"
               y="425.9238"
               id="tspan4314"
               style="font-style:italic;font-variant:normal;font-weight:normal;font-stretch:normal;font-size:5.05084753px;line-height:125%;font-family:FreeSans;-inkscape-font-specification:'FreeSans, Italic';text-align:start;writing-mode:lr-tb;text-anchor:start">user base class </tspan><tspan
               id="tspan4322"
               sodipodi:role="line"
               x="167.51089"
               y="432.23737"
               style="font-style:italic;font-variant:normal;font-weight:normal;font-stretch:normal;font-size:5.05084753px;line-height:125%;font-family:FreeSans;-inkscape-font-specification:'FreeSans, Italic';text-align:start;writing-mode:lr-tb;text-anchor:start">for game objects</tspan></text>
          <text
             sodipodi:linespacing="125%"
             id="text4316"
             y="455.98541"
             x="85.816307"
             style="font-style:normal;font-weight:normal;font-size:40.40678024px;line-height:125%;font-family:sans-serif;letter-spacing:0px;word-spacing:0px;fill:#000000;fill-opacity:1;stroke:none;stroke-width:1px;stroke-linecap:butt;stroke-linejoin:miter;stroke-opacity:1"
             xml:space="preserve"><tspan
               style="font-style:italic;font-variant:normal;font-weight:normal;font-stretch:normal;font-size:5.05084753px;line-height:125%;font-family:FreeSans;-inkscape-font-specification:'FreeSans, Italic';text-align:start;writing-mode:lr-tb;text-anchor:start"
               id="tspan4318"
               y="455.98541"
               x="85.816307"
               sodipodi:role="line">composable groups</tspan><tspan
               id="tspan4320"
               style="font-style:italic;font-variant:normal;font-weight:normal;font-stretch:normal;font-size:5.05084753px;line-height:125%;font-family:FreeSans;-inkscape-font-specification:'FreeSans, Italic';text-align:start;writing-mode:lr-tb;text-anchor:start"
               y="462.29898"
               x="85.816307"
               sodipodi:role="line">of colliding Nodes</tspan></text>
          <text
             xml:space="preserve"
             style="font-style:normal;font-weight:normal;font-size:40.40678024px;line-height:125%;font-family:sans-serif;letter-spacing:0px;word-spacing:0px;fill:#000000;fill-opacity:1;stroke:none;stroke-width:1px;stroke-linecap:butt;stroke-linejoin:miter;stroke-opacity:1"
             x="118.74406"
             y="489.35812"
             id="text4324"
             sodipodi:linespacing="125%"><tspan
               sodipodi:role="line"
               x="118.74406"
               y="489.35812"
               style="font-style:italic;font-variant:normal;font-weight:normal;font-stretch:normal;font-size:5.05084753px;line-height:125%;font-family:FreeSans;-inkscape-font-specification:'FreeSans, Italic';text-align:start;writing-mode:lr-tb;text-anchor:start"
               id="tspan4328">game-specific</tspan><tspan
               id="tspan4488"
               sodipodi:role="line"
               x="118.74406"
               y="495.67169"
               style="font-style:italic;font-variant:normal;font-weight:normal;font-stretch:normal;font-size:5.05084753px;line-height:125%;font-family:FreeSans;-inkscape-font-specification:'FreeSans, Italic';text-align:start;writing-mode:lr-tb;text-anchor:start">subclasses</tspan></text>
          <path
             style="fill:none;fill-rule:evenodd;stroke:#000000;stroke-width:0.24918303;stroke-linecap:butt;stroke-linejoin:miter;stroke-miterlimit:4;stroke-dasharray:none;stroke-opacity:1"
             d="m 115.05105,482.33624 0.17042,16.16343"
             id="path4476"
             inkscape:connector-type="polyline"
             inkscape:connector-curvature="0"
             sodipodi:nodetypes="cc" />
          <circle
             style="fill:#000000;fill-opacity:1;stroke-width:0.2;stroke-miterlimit:4;stroke-dasharray:none"
             id="circle4480"
             cx="111.91119"
             cy="502.59131"
             r="1.2585644" />
          <circle
             r="1.2585644"
             cy="502.59131"
             cx="118.51865"
             id="circle4482"
             style="fill:#000000;fill-opacity:1;stroke-width:0.2;stroke-miterlimit:4;stroke-dasharray:none" />
          <circle
             style="fill:#000000;fill-opacity:1;stroke-width:0.2;stroke-miterlimit:4;stroke-dasharray:none"
             id="circle4484"
             cx="115.21492"
             cy="502.59131"
             r="1.2585644" />
          <text
             xml:space="preserve"
             style="font-style:normal;font-weight:normal;font-size:40.40678024px;line-height:125%;font-family:sans-serif;letter-spacing:0px;word-spacing:0px;fill:#000000;fill-opacity:1;stroke:none;stroke-width:1px;stroke-linecap:butt;stroke-linejoin:miter;stroke-opacity:1"
             x="237.37646"
             y="456.69986"
             id="text4501"
             sodipodi:linespacing="125%"><tspan
               sodipodi:role="line"
               x="237.37646"
               y="456.69986"
               style="font-style:italic;font-variant:normal;font-weight:normal;font-stretch:normal;font-size:5.05084753px;line-height:125%;font-family:FreeSans;-inkscape-font-specification:'FreeSans, Italic';text-align:start;writing-mode:lr-tb;text-anchor:start"
               id="tspan4505">Visual Lisp</tspan><tspan
               id="tspan4509"
               sodipodi:role="line"
               x="237.37646"
               y="463.01343"
               style="font-style:italic;font-variant:normal;font-weight:normal;font-stretch:normal;font-size:5.05084753px;line-height:125%;font-family:FreeSans;-inkscape-font-specification:'FreeSans, Italic';text-align:start;writing-mode:lr-tb;text-anchor:start">expressions</tspan></text>
          <text
             sodipodi:linespacing="125%"
             id="text4511"
             y="526.6676"
             x="160.46172"
             style="font-style:normal;font-weight:normal;font-size:40.40678024px;line-height:125%;font-family:sans-serif;letter-spacing:0px;word-spacing:0px;fill:#000000;fill-opacity:1;stroke:none;stroke-width:1px;stroke-linecap:butt;stroke-linejoin:miter;stroke-opacity:1"
             xml:space="preserve"><tspan
               style="font-style:italic;font-variant:normal;font-weight:normal;font-stretch:normal;font-size:5.05084753px;line-height:125%;font-family:FreeSans;-inkscape-font-specification:'FreeSans, Italic';text-align:start;writing-mode:lr-tb;text-anchor:start"
               y="526.6676"
               x="160.46172"
               sodipodi:role="line"
               id="tspan4515">collapsing </tspan><tspan
               style="font-style:italic;font-variant:normal;font-weight:normal;font-stretch:normal;font-size:5.05084753px;line-height:125%;font-family:FreeSans;-inkscape-font-specification:'FreeSans, Italic';text-align:start;writing-mode:lr-tb;text-anchor:start"
               y="532.98114"
               x="160.46172"
               sodipodi:role="line"
               id="tspan4660">hierarchical view</tspan></text>
          <text
             xml:space="preserve"
             style="font-style:normal;font-weight:normal;font-size:40.40678024px;line-height:125%;font-family:sans-serif;letter-spacing:0px;word-spacing:0px;fill:#000000;fill-opacity:1;stroke:none;stroke-width:1px;stroke-linecap:butt;stroke-linejoin:miter;stroke-opacity:1"
             x="96.050606"
             y="576.12714"
             id="text4519"
             sodipodi:linespacing="125%"><tspan
               id="tspan4521"
               sodipodi:role="line"
               x="96.050606"
               y="576.12714"
               style="font-style:italic;font-variant:normal;font-weight:normal;font-stretch:normal;font-size:5.05084753px;line-height:125%;font-family:FreeSans;-inkscape-font-specification:'FreeSans, Italic';text-align:start;writing-mode:lr-tb;text-anchor:start">pop-up and pull-down menus</tspan></text>
          <text
             xml:space="preserve"
             style="font-style:normal;font-weight:normal;font-size:40.40678024px;line-height:125%;font-family:sans-serif;letter-spacing:0px;word-spacing:0px;fill:#000000;fill-opacity:1;stroke:none;stroke-width:1px;stroke-linecap:butt;stroke-linejoin:miter;stroke-opacity:1"
             x="351.4632"
             y="431.06711"
             id="text4523"
             sodipodi:linespacing="125%"><tspan
               sodipodi:role="line"
               x="351.4632"
               y="431.06711"
               id="tspan4525"
               style="font-style:italic;font-variant:normal;font-weight:normal;font-stretch:normal;font-size:5.05084753px;line-height:125%;font-family:FreeSans;-inkscape-font-specification:'FreeSans, Italic';text-align:start;writing-mode:lr-tb;text-anchor:start">automation</tspan><tspan
               id="tspan4539"
               sodipodi:role="line"
               x="351.4632"
               y="437.38068"
               style="font-style:italic;font-variant:normal;font-weight:normal;font-stretch:normal;font-size:5.05084753px;line-height:125%;font-family:FreeSans;-inkscape-font-specification:'FreeSans, Italic';text-align:start;writing-mode:lr-tb;text-anchor:start">testing</tspan><tspan
               id="tspan4537"
               sodipodi:role="line"
               x="351.4632"
               y="443.69421"
               style="font-style:italic;font-variant:normal;font-weight:normal;font-stretch:normal;font-size:5.05084753px;line-height:125%;font-family:FreeSans;-inkscape-font-specification:'FreeSans, Italic';text-align:start;writing-mode:lr-tb;text-anchor:start">undo/redo</tspan></text>
          <text
             sodipodi:linespacing="125%"
             id="text4527"
             y="510.90756"
             x="344.68069"
             style="font-style:normal;font-weight:normal;font-size:40.40678024px;line-height:125%;font-family:sans-serif;letter-spacing:0px;word-spacing:0px;fill:#000000;fill-opacity:1;stroke:none;stroke-width:1px;stroke-linecap:butt;stroke-linejoin:miter;stroke-opacity:1"
             xml:space="preserve"><tspan
               id="tspan4531"
               style="font-style:italic;font-variant:normal;font-weight:normal;font-stretch:normal;font-size:5.05084753px;line-height:125%;font-family:FreeSans;-inkscape-font-specification:'FreeSans, Italic';text-align:start;writing-mode:lr-tb;text-anchor:start"
               y="510.90756"
               x="344.68069"
               sodipodi:role="line">operation-specific</tspan><tspan
               id="tspan4535"
               style="font-style:italic;font-variant:normal;font-weight:normal;font-stretch:normal;font-size:5.05084753px;line-height:125%;font-family:FreeSans;-inkscape-font-specification:'FreeSans, Italic';text-align:start;writing-mode:lr-tb;text-anchor:start"
               y="517.22113"
               x="344.68069"
               sodipodi:role="line">subclasses</tspan></text>
          <text
             xml:space="preserve"
             style="font-style:normal;font-weight:normal;font-size:40.40678024px;line-height:125%;font-family:sans-serif;letter-spacing:0px;word-spacing:0px;fill:#000000;fill-opacity:1;stroke:none;stroke-width:1px;stroke-linecap:butt;stroke-linejoin:miter;stroke-opacity:1"
             x="511.7532"
             y="455.70169"
             id="text4523-3"
             sodipodi:linespacing="125%"><tspan
               id="tspan4569"
               sodipodi:role="line"
               x="511.7532"
               y="455.70169"
               style="font-style:italic;font-variant:normal;font-weight:normal;font-stretch:normal;font-size:5.05084753px;line-height:125%;font-family:FreeSans;-inkscape-font-specification:'FreeSans, Italic';text-align:start;writing-mode:lr-tb;text-anchor:start">manipulating</tspan><tspan
               id="tspan4573"
               sodipodi:role="line"
               x="511.7532"
               y="462.01526"
               style="font-style:italic;font-variant:normal;font-weight:normal;font-stretch:normal;font-size:5.05084753px;line-height:125%;font-family:FreeSans;-inkscape-font-specification:'FreeSans, Italic';text-align:start;writing-mode:lr-tb;text-anchor:start">objects</tspan></text>
          <text
             sodipodi:linespacing="125%"
             id="text4575"
             y="461.70874"
             x="623.88556"
             style="font-style:normal;font-weight:normal;font-size:40.40678024px;line-height:125%;font-family:sans-serif;letter-spacing:0px;word-spacing:0px;fill:#000000;fill-opacity:1;stroke:none;stroke-width:1px;stroke-linecap:butt;stroke-linejoin:miter;stroke-opacity:1"
             xml:space="preserve"><tspan
               id="tspan4649"
               style="font-style:italic;font-variant:normal;font-weight:normal;font-stretch:normal;font-size:5.05084753px;line-height:125%;font-family:FreeSans;-inkscape-font-specification:'FreeSans, Italic';text-align:start;writing-mode:lr-tb;text-anchor:start"
               y="461.70874"
               x="623.88556"
               sodipodi:role="line">text input with history</tspan></text>
          <text
             xml:space="preserve"
             style="font-style:normal;font-weight:normal;font-size:40.40678024px;line-height:125%;font-family:sans-serif;letter-spacing:0px;word-spacing:0px;fill:#000000;fill-opacity:1;stroke:none;stroke-width:1px;stroke-linecap:butt;stroke-linejoin:miter;stroke-opacity:1"
             x="576.49628"
             y="551.59271"
             id="text4583"
             sodipodi:linespacing="125%"><tspan
               id="tspan4585"
               sodipodi:role="line"
               x="576.49628"
               y="551.59271"
               style="font-style:italic;font-variant:normal;font-weight:normal;font-stretch:normal;font-size:5.05084753px;line-height:125%;font-family:FreeSans;-inkscape-font-specification:'FreeSans, Italic';text-align:start;writing-mode:lr-tb;text-anchor:start">data entry</tspan><tspan
               id="tspan4587"
               sodipodi:role="line"
               x="576.49628"
               y="557.90625"
               style="font-style:italic;font-variant:normal;font-weight:normal;font-stretch:normal;font-size:5.05084753px;line-height:125%;font-family:FreeSans;-inkscape-font-specification:'FreeSans, Italic';text-align:start;writing-mode:lr-tb;text-anchor:start">and validation</tspan></text>
          <text
             xml:space="preserve"
             style="font-style:normal;font-weight:normal;font-size:40.40678024px;line-height:125%;font-family:sans-serif;letter-spacing:0px;word-spacing:0px;fill:#000000;fill-opacity:1;stroke:none;stroke-width:1px;stroke-linecap:butt;stroke-linejoin:miter;stroke-opacity:1"
             x="282.80655"
             y="560.37445"
             id="text4593"
             sodipodi:linespacing="125%"><tspan
               id="tspan4605"
               sodipodi:role="line"
               x="282.80655"
               y="560.37445"
               style="font-style:italic;font-variant:normal;font-weight:normal;font-stretch:normal;font-size:5.05084753px;line-height:125%;font-family:FreeSans;-inkscape-font-specification:'FreeSans, Italic';text-align:start;writing-mode:lr-tb;text-anchor:start">game editor user interface</tspan></text>
          <text
             xml:space="preserve"
             style="font-style:normal;font-weight:normal;font-size:40.40678024px;line-height:125%;font-family:sans-serif;letter-spacing:0px;word-spacing:0px;fill:#000000;fill-opacity:1;stroke:none;stroke-width:1px;stroke-linecap:butt;stroke-linejoin:miter;stroke-opacity:1"
             x="238.24518"
             y="596.91882"
             id="text4593-4"
             sodipodi:linespacing="125%"><tspan
               id="tspan4605-4"
               sodipodi:role="line"
               x="238.24518"
               y="596.91882"
               style="font-style:italic;font-variant:normal;font-weight:normal;font-stretch:normal;font-size:5.05084753px;line-height:125%;font-family:FreeSans;-inkscape-font-specification:'FreeSans, Italic';text-align:start;writing-mode:lr-tb;text-anchor:start">desktop-style</tspan><tspan
               id="tspan4627"
               sodipodi:role="line"
               x="238.24518"
               y="603.23236"
               style="font-style:italic;font-variant:normal;font-weight:normal;font-stretch:normal;font-size:5.05084753px;line-height:125%;font-family:FreeSans;-inkscape-font-specification:'FreeSans, Italic';text-align:start;writing-mode:lr-tb;text-anchor:start">floating windows</tspan></text>
          <text
             sodipodi:linespacing="125%"
             id="text4629"
             y="633.85132"
             x="333.9136"
             style="font-style:normal;font-weight:normal;font-size:40.40678024px;line-height:125%;font-family:sans-serif;letter-spacing:0px;word-spacing:0px;fill:#000000;fill-opacity:1;stroke:none;stroke-width:1px;stroke-linecap:butt;stroke-linejoin:miter;stroke-opacity:1"
             xml:space="preserve"><tspan
               style="font-style:italic;font-variant:normal;font-weight:normal;font-stretch:normal;font-size:5.05084753px;line-height:125%;font-family:FreeSans;-inkscape-font-specification:'FreeSans, Italic';text-align:start;writing-mode:lr-tb;text-anchor:start"
               y="633.85132"
               x="333.9136"
               sodipodi:role="line"
               id="tspan4633">guided operations</tspan></text>
          <text
             xml:space="preserve"
             style="font-style:normal;font-weight:normal;font-size:40.40678024px;line-height:125%;font-family:sans-serif;letter-spacing:0px;word-spacing:0px;fill:#000000;fill-opacity:1;stroke:none;stroke-width:1px;stroke-linecap:butt;stroke-linejoin:miter;stroke-opacity:1"
             x="410.00342"
             y="633.85132"
             id="text4637"
             sodipodi:linespacing="125%"><tspan
               id="tspan4639"
               sodipodi:role="line"
               x="410.00342"
               y="633.85132"
               style="font-style:italic;font-variant:normal;font-weight:normal;font-stretch:normal;font-size:5.05084753px;line-height:125%;font-family:FreeSans;-inkscape-font-specification:'FreeSans, Italic';text-align:start;writing-mode:lr-tb;text-anchor:start">system status</tspan></text>
          <text
             sodipodi:linespacing="125%"
             id="text4645"
             y="634.07385"
             x="546.16418"
             style="font-style:normal;font-weight:normal;font-size:40.40678024px;line-height:125%;font-family:sans-serif;letter-spacing:0px;word-spacing:0px;fill:#000000;fill-opacity:1;stroke:none;stroke-width:1px;stroke-linecap:butt;stroke-linejoin:miter;stroke-opacity:1"
             xml:space="preserve"><tspan
               style="font-style:italic;font-variant:normal;font-weight:normal;font-stretch:normal;font-size:5.05084753px;line-height:125%;font-family:FreeSans;-inkscape-font-specification:'FreeSans, Italic';text-align:start;writing-mode:lr-tb;text-anchor:start"
               y="634.07385"
               x="546.16418"
               sodipodi:role="line"
               id="tspan4647">project management</tspan><tspan
               id="tspan4661"
               style="font-style:italic;font-variant:normal;font-weight:normal;font-stretch:normal;font-size:5.05084753px;line-height:125%;font-family:FreeSans;-inkscape-font-specification:'FreeSans, Italic';text-align:start;writing-mode:lr-tb;text-anchor:start"
               y="640.38739"
               x="546.16418"
               sodipodi:role="line">and system control</tspan></text>
          <text
             xml:space="preserve"
             style="font-style:normal;font-weight:normal;font-size:40.40678024px;line-height:125%;font-family:sans-serif;letter-spacing:0px;word-spacing:0px;fill:#000000;fill-opacity:1;stroke:none;stroke-width:1px;stroke-linecap:butt;stroke-linejoin:miter;stroke-opacity:1"
             x="624.35748"
             y="532.3457"
             id="text4653"
             sodipodi:linespacing="125%"><tspan
               id="tspan4657"
               sodipodi:role="line"
               x="624.35748"
               y="532.3457"
               style="font-style:italic;font-variant:normal;font-weight:normal;font-stretch:normal;font-size:5.05084753px;line-height:125%;font-family:FreeSans;-inkscape-font-specification:'FreeSans, Italic';text-align:start;writing-mode:lr-tb;text-anchor:start">user-friendly command line</tspan></text>
          <path
             style="fill:none;fill-rule:evenodd;stroke:#000000;stroke-width:0.17345625;stroke-linecap:butt;stroke-linejoin:miter;stroke-miterlimit:4;stroke-dasharray:none;stroke-opacity:1"
             d="m 279.41317,566.33622 2e-5,43.98355"
             id="path4668"
             sodipodi:nodetypes="cc"
             inkscape:connector-curvature="3" />
          <path
             inkscape:connector-curvature="3"
             sodipodi:nodetypes="cc"
             id="path4862"
             d="m 204.3286,659.59634 313.38177,-0.0805"
             style="fill:none;fill-rule:evenodd;stroke:#000000;stroke-width:0.17345625;stroke-linecap:butt;stroke-linejoin:miter;stroke-miterlimit:4;stroke-dasharray:1.38764996, 0.69382498;stroke-dashoffset:0;stroke-opacity:1" />
          <rect
             y="690.46899"
             x="176.81007"
             height="15.469284"
             width="56.802086"
             id="rect4882"
             style="fill:#e3dbdb;fill-opacity:1;fill-rule:evenodd;stroke:#000000;stroke-width:0.50444651px;stroke-linecap:butt;stroke-linejoin:miter;stroke-opacity:1" />
          <text
             sodipodi:linespacing="125%"
             id="text4884"
             y="700.77209"
             x="193.71539"
             style="font-style:normal;font-weight:normal;font-size:7.07173824px;line-height:125%;font-family:sans-serif;letter-spacing:0px;word-spacing:0px;fill:#000000;fill-opacity:1;stroke:none;stroke-width:1px;stroke-linecap:butt;stroke-linejoin:miter;stroke-opacity:1"
             xml:space="preserve"><tspan
               style="font-style:normal;font-variant:normal;font-weight:normal;font-stretch:normal;font-family:FreeSans;-inkscape-font-specification:FreeSans"
               y="700.77209"
               x="193.71539"
               id="tspan4886"
               sodipodi:role="line">System</tspan></text>
          <rect
             style="fill:#e3dedb;fill-opacity:1;fill-rule:evenodd;stroke:#000000;stroke-width:0.50444651px;stroke-linecap:butt;stroke-linejoin:miter;stroke-opacity:1"
             id="rect4890"
             width="56.802086"
             height="15.469284"
             x="255.00078"
             y="690.46899" />
          <text
             xml:space="preserve"
             style="font-style:normal;font-weight:normal;font-size:7.07173824px;line-height:125%;font-family:sans-serif;letter-spacing:0px;word-spacing:0px;fill:#000000;fill-opacity:1;stroke:none;stroke-width:1px;stroke-linecap:butt;stroke-linejoin:miter;stroke-opacity:1"
             x="268.67975"
             y="700.77209"
             id="text4892"
             sodipodi:linespacing="125%"><tspan
               sodipodi:role="line"
               id="tspan4894"
               x="268.67975"
               y="700.77209"
               style="font-style:normal;font-variant:normal;font-weight:normal;font-stretch:normal;font-family:FreeSans;-inkscape-font-specification:FreeSans;fill:#000000">Resource</tspan></text>
          <g
             transform="matrix(1.2459151,0,0,1.2459151,-384.51913,-239.9332)"
             id="g4979">
            <g
               id="g4976">
              <rect
                 y="746.76208"
                 x="576.05096"
                 height="12.416002"
                 width="45.590656"
                 id="rect4898"
                 style="fill:#e3dbdb;fill-opacity:1;fill-rule:evenodd;stroke:#000000;stroke-width:0.40488034px;stroke-linecap:butt;stroke-linejoin:miter;stroke-opacity:1" />
            </g>
            <text
               xml:space="preserve"
               style="font-style:normal;font-weight:normal;font-size:5.67593908px;line-height:125%;font-family:sans-serif;letter-spacing:0px;word-spacing:0px;fill:#000000;fill-opacity:1;stroke:none;stroke-width:1px;stroke-linecap:butt;stroke-linejoin:miter;stroke-opacity:1"
               x="585.94519"
               y="755.03162"
               id="text4900"
               sodipodi:linespacing="125%"><tspan
                 sodipodi:role="line"
                 id="tspan4902"
                 x="585.94519"
                 y="755.03162"
                 style="font-style:normal;font-variant:normal;font-weight:normal;font-stretch:normal;font-family:FreeSans;-inkscape-font-specification:FreeSans">Reference</tspan></text>
          </g>
          <path
             inkscape:connector-curvature="0"
             inkscape:connector-type="polyline"
             id="path4904"
             d="m 204.37786,659.56896 -0.0774,30.04509"
             style="display:inline;fill:none;fill-rule:evenodd;stroke:#000000;stroke-width:0.17345625;stroke-linecap:butt;stroke-linejoin:miter;stroke-miterlimit:4;stroke-dasharray:1.38765007, 0.69382503;stroke-dashoffset:0;stroke-opacity:1" />
          <g
             id="g4931"
             transform="matrix(1.2459151,0,0,1.2459151,-72.859206,-232.16876)">
            <g
               id="g4939">
              <rect
                 y="459.2749"
                 x="143.83511"
                 height="12.416002"
                 width="45.590656"
                 id="rect4933"
                 style="fill:#fcffe3;fill-opacity:1;fill-rule:evenodd;stroke:#000000;stroke-width:0.40488034px;stroke-linecap:butt;stroke-linejoin:miter;stroke-opacity:1" />
              <text
                 sodipodi:linespacing="125%"
                 id="text4935"
                 y="467.5444"
                 x="154.96808"
                 style="font-style:normal;font-weight:normal;font-size:5.67593908px;line-height:125%;font-family:sans-serif;letter-spacing:0px;word-spacing:0px;fill:#000000;fill-opacity:1;stroke:none;stroke-width:1px;stroke-linecap:butt;stroke-linejoin:miter;stroke-opacity:1"
                 xml:space="preserve"><tspan
                   style="font-style:normal;font-variant:normal;font-weight:normal;font-stretch:normal;font-family:FreeSans;-inkscape-font-specification:FreeSans"
                   y="467.5444"
                   x="154.96808"
                   id="tspan4937"
                   sodipodi:role="line">Quadtree</tspan></text>
            </g>
            <g
               id="g4955">
              <rect
                 style="fill:#fcffe3;fill-opacity:1;fill-rule:evenodd;stroke:#000000;stroke-width:0.40488034px;stroke-linecap:butt;stroke-linejoin:miter;stroke-opacity:1"
                 id="rect4946"
                 width="45.590656"
                 height="12.416002"
                 x="224.52353"
                 y="459.45068" />
              <text
                 xml:space="preserve"
                 style="font-style:normal;font-weight:normal;font-size:5.67593908px;line-height:125%;font-family:sans-serif;letter-spacing:0px;word-spacing:0px;fill:#000000;fill-opacity:1;stroke:none;stroke-width:1px;stroke-linecap:butt;stroke-linejoin:miter;stroke-opacity:1"
                 x="241.54497"
                 y="467.72018"
                 id="text4948"
                 sodipodi:linespacing="125%"><tspan
                   sodipodi:role="line"
                   id="tspan4950"
                   x="241.54497"
                   y="467.72018"
                   style="font-style:normal;font-variant:normal;font-weight:normal;font-stretch:normal;font-family:FreeSans;-inkscape-font-specification:FreeSans">Path</tspan></text>
            </g>
          </g>
          <text
             sodipodi:linespacing="125%"
             id="text4960"
             y="334.95676"
             x="118.73174"
             style="font-style:normal;font-weight:normal;font-size:40.40678024px;line-height:125%;font-family:sans-serif;letter-spacing:0px;word-spacing:0px;fill:#000000;fill-opacity:1;stroke:none;stroke-width:1px;stroke-linecap:butt;stroke-linejoin:miter;stroke-opacity:1"
             xml:space="preserve"><tspan
               style="font-style:italic;font-variant:normal;font-weight:normal;font-stretch:normal;font-size:5.05084753px;line-height:125%;font-family:FreeSans;-inkscape-font-specification:'FreeSans, Italic';text-align:start;writing-mode:lr-tb;text-anchor:start"
               id="tspan4962"
               y="334.95676"
               x="118.73174"
               sodipodi:role="line">spatial indexing</tspan></text>
          <text
             xml:space="preserve"
             style="font-style:normal;font-weight:normal;font-size:40.40678024px;line-height:125%;font-family:sans-serif;letter-spacing:0px;word-spacing:0px;fill:#000000;fill-opacity:1;stroke:none;stroke-width:1px;stroke-linecap:butt;stroke-linejoin:miter;stroke-opacity:1"
             x="219.39832"
             y="334.95676"
             id="text4964"
             sodipodi:linespacing="125%"><tspan
               sodipodi:role="line"
               x="219.39832"
               y="334.95676"
               id="tspan4966"
               style="font-style:italic;font-variant:normal;font-weight:normal;font-stretch:normal;font-size:5.05084753px;line-height:125%;font-family:FreeSans;-inkscape-font-specification:'FreeSans, Italic';text-align:start;writing-mode:lr-tb;text-anchor:start">A* pathfinding</tspan></text>
          <rect
             y="356.50134"
             x="432.25156"
             height="6.6074643"
             width="17.462585"
             id="rect5159"
             style="fill:#e5ffd5;fill-opacity:1;stroke-width:0.2;stroke-miterlimit:4;stroke-dasharray:none" />
          <rect
             style="fill:#fcffe3;fill-opacity:1;stroke-width:0.2;stroke-miterlimit:4;stroke-dasharray:none"
             id="rect5161"
             width="17.462585"
             height="6.6074643"
             x="432.25156"
             y="349.89389" />
          <rect
             y="363.1088"
             x="432.25156"
             height="6.6074643"
             width="17.462585"
             id="rect5163"
             style="fill:#e3fffc;fill-opacity:1;stroke-width:0.2;stroke-miterlimit:4;stroke-dasharray:none" />
          <rect
             style="fill:#edc7ee;fill-opacity:1;stroke-width:0.2;stroke-miterlimit:4;stroke-dasharray:none"
             id="rect5165"
             width="17.462585"
             height="6.6074643"
             x="432.25156"
             y="369.71625" />
          <text
             sodipodi:linespacing="125%"
             id="text5167"
             y="348.01132"
             x="450.59872"
             style="font-style:normal;font-weight:normal;font-size:5.47265673px;line-height:125%;font-family:sans-serif;letter-spacing:0px;word-spacing:0px;fill:#000000;fill-opacity:1;stroke:none;stroke-width:1px;stroke-linecap:butt;stroke-linejoin:miter;stroke-opacity:1"
             xml:space="preserve"><tspan
               y="348.01132"
               x="450.59872"
               id="tspan5169"
               sodipodi:role="line" /><tspan
               style="font-style:normal;font-variant:normal;font-weight:normal;font-stretch:normal;font-family:FreeSans;-inkscape-font-specification:FreeSans"
               id="tspan5173"
               y="354.52789"
               x="450.59872"
               sodipodi:role="line">System</tspan><tspan
               id="tspan4876"
               style="font-style:normal;font-variant:normal;font-weight:normal;font-stretch:normal;font-family:FreeSans;-inkscape-font-specification:FreeSans"
               y="361.36871"
               x="450.59872"
               sodipodi:role="line">User</tspan><tspan
               style="font-style:normal;font-variant:normal;font-weight:normal;font-stretch:normal;font-family:FreeSans;-inkscape-font-specification:FreeSans"
               id="tspan5175"
               y="368.20953"
               x="450.59872"
               sodipodi:role="line">GUI</tspan><tspan
               style="font-style:normal;font-variant:normal;font-weight:normal;font-stretch:normal;font-family:FreeSans;-inkscape-font-specification:FreeSans"
               id="tspan5179"
               y="375.05035"
               x="450.59872"
               sodipodi:role="line">Application</tspan><tspan
               id="tspan4998"
               style="font-style:normal;font-variant:normal;font-weight:normal;font-stretch:normal;font-family:FreeSans;-inkscape-font-specification:FreeSans"
               y="381.89117"
               x="450.59872"
               sodipodi:role="line">Planned</tspan></text>
          <rect
             y="350.06638"
             x="432.12234"
             height="32.961731"
             width="17.739727"
             id="rect4878"
             style="fill:none;fill-opacity:1;stroke:#000000;stroke-width:0.19648059;stroke-miterlimit:4;stroke-dasharray:none;stroke-dashoffset:0" />
          <rect
             y="376.32373"
             x="432.25156"
             height="6.6074643"
             width="17.462585"
             id="rect4996"
             style="fill:#e3dbdb;fill-opacity:1;stroke-width:0.2;stroke-miterlimit:4;stroke-dasharray:none" />
          <g
             transform="matrix(1.2459151,0,0,1.2459151,-308.73766,-239.9332)"
             id="g5017">
            <g
               id="g5033"
               transform="translate(1.9337063,-2.2652803e-6)">
              <g
                 id="g5027">
                <g
                   id="g5019">
                  <rect
                     style="fill:#e3dbdb;fill-opacity:1;fill-rule:evenodd;stroke:#000000;stroke-width:0.40488034px;stroke-linecap:butt;stroke-linejoin:miter;stroke-opacity:1"
                     id="rect5021"
                     width="45.590656"
                     height="12.416002"
                     x="576.05096"
                     y="746.76208" />
                </g>
                <text
                   sodipodi:linespacing="125%"
                   id="text5023"
                   y="755.03162"
                   x="586.0202"
                   style="font-style:normal;font-weight:normal;font-size:5.67593908px;line-height:125%;font-family:sans-serif;letter-spacing:0px;word-spacing:0px;fill:#000000;fill-opacity:1;stroke:none;stroke-width:1px;stroke-linecap:butt;stroke-linejoin:miter;stroke-opacity:1"
                   xml:space="preserve"><tspan
                     style="font-style:normal;font-variant:normal;font-weight:normal;font-stretch:normal;font-family:FreeSans;-inkscape-font-specification:FreeSans"
                     y="755.03162"
                     x="586.0202"
                     id="tspan5025"
                     sodipodi:role="line">Properties</tspan></text>
              </g>
            </g>
            <g
               id="g5042"
               transform="translate(87.895873,3.1642514)">
              <g
                 id="g5057"
                 transform="translate(-23.20451,-3.1642537)">
                <g
                   id="g5044">
                  <rect
                     y="746.76208"
                     x="576.05096"
                     height="12.416002"
                     width="45.590656"
                     id="rect5046"
                     style="fill:#e3dbdb;fill-opacity:1;fill-rule:evenodd;stroke:#000000;stroke-width:0.40488034px;stroke-linecap:butt;stroke-linejoin:miter;stroke-opacity:1" />
                </g>
                <text
                   xml:space="preserve"
                   style="font-style:normal;font-weight:normal;font-size:5.67593908px;line-height:125%;font-family:sans-serif;letter-spacing:0px;word-spacing:0px;fill:#000000;fill-opacity:1;stroke:none;stroke-width:1px;stroke-linecap:butt;stroke-linejoin:miter;stroke-opacity:1"
                   x="589.92731"
                   y="755.03162"
                   id="text5048"
                   sodipodi:linespacing="125%"><tspan
                     sodipodi:role="line"
                     id="tspan5050"
                     x="589.92731"
                     y="755.03162"
                     style="font-style:normal;font-variant:normal;font-weight:normal;font-stretch:normal;font-family:FreeSans;-inkscape-font-specification:FreeSans">Project</tspan></text>
              </g>
            </g>
          </g>
          <path
             sodipodi:nodetypes="cc"
             id="path5065"
             d="m 518.02014,659.5561 -0.0462,30.66065"
             style="fill:none;fill-rule:evenodd;stroke:#000000;stroke-width:0.17345625;stroke-linecap:butt;stroke-linejoin:miter;stroke-miterlimit:4;stroke-dasharray:1.38765007, 0.69382503;stroke-dashoffset:0;stroke-opacity:1"
             inkscape:connector-curvature="0" />
          <path
             inkscape:connector-curvature="0"
             style="fill:none;fill-rule:evenodd;stroke:#000000;stroke-width:0.17345625;stroke-linecap:butt;stroke-linejoin:miter;stroke-miterlimit:4;stroke-dasharray:1.38765007, 0.69382503;stroke-dashoffset:0;stroke-opacity:1"
             d="m 439.80635,659.55597 -0.0462,30.66065"
             id="path5069"
             sodipodi:nodetypes="cc" />
          <path
             sodipodi:nodetypes="cc"
             id="path5071"
             d="m 361.0426,659.6832 -0.0462,30.66065"
             style="fill:none;fill-rule:evenodd;stroke:#000000;stroke-width:0.17345625;stroke-linecap:butt;stroke-linejoin:miter;stroke-miterlimit:4;stroke-dasharray:1.38765007, 0.69382503;stroke-dashoffset:0;stroke-opacity:1"
             inkscape:connector-curvature="0" />
          <path
             inkscape:connector-curvature="0"
             style="fill:none;fill-rule:evenodd;stroke:#000000;stroke-width:0.17345625;stroke-linecap:butt;stroke-linejoin:miter;stroke-miterlimit:4;stroke-dasharray:1.38765007, 0.69382503;stroke-dashoffset:0;stroke-opacity:1"
             d="m 283.42493,659.55597 -0.0462,30.66065"
             id="path5073"
             sodipodi:nodetypes="cc" />
          <text
             sodipodi:linespacing="125%"
             id="text5075"
             y="713.59589"
             x="187.45929"
             style="font-style:normal;font-weight:normal;font-size:40.40678024px;line-height:125%;font-family:sans-serif;letter-spacing:0px;word-spacing:0px;fill:#000000;fill-opacity:1;stroke:none;stroke-width:1px;stroke-linecap:butt;stroke-linejoin:miter;stroke-opacity:1"
             xml:space="preserve"><tspan
               id="tspan5111"
               style="font-style:italic;font-variant:normal;font-weight:normal;font-stretch:normal;font-size:5.05084753px;line-height:125%;font-family:FreeSans;-inkscape-font-specification:'FreeSans, Italic';text-align:start;writing-mode:lr-tb;text-anchor:start"
               y="713.59589"
               x="187.45929"
               sodipodi:role="line">front-end for</tspan><tspan
               id="tspan5115"
               style="font-style:italic;font-variant:normal;font-weight:normal;font-stretch:normal;font-size:5.05084753px;line-height:125%;font-family:FreeSans;-inkscape-font-specification:'FreeSans, Italic';text-align:start;writing-mode:lr-tb;text-anchor:start"
               y="719.90942"
               x="187.45929"
               sodipodi:role="line">host machine </tspan></text>
          <text
             xml:space="preserve"
             style="font-style:normal;font-weight:normal;font-size:40.40678024px;line-height:125%;font-family:sans-serif;letter-spacing:0px;word-spacing:0px;fill:#000000;fill-opacity:1;stroke:none;stroke-width:1px;stroke-linecap:butt;stroke-linejoin:miter;stroke-opacity:1"
             x="262.14566"
             y="713.59589"
             id="text5085"
             sodipodi:linespacing="125%"><tspan
               sodipodi:role="line"
               x="262.14566"
               y="713.59589"
               style="font-style:italic;font-variant:normal;font-weight:normal;font-stretch:normal;font-size:5.05084753px;line-height:125%;font-family:FreeSans;-inkscape-font-specification:'FreeSans, Italic';text-align:start;writing-mode:lr-tb;text-anchor:start"
               id="tspan5089">asset management</tspan></text>
          <text
             sodipodi:linespacing="125%"
             id="text5093"
             y="713.59589"
             x="506.05869"
             style="font-style:normal;font-weight:normal;font-size:40.40678024px;line-height:125%;font-family:sans-serif;letter-spacing:0px;word-spacing:0px;fill:#000000;fill-opacity:1;stroke:none;stroke-width:1px;stroke-linecap:butt;stroke-linejoin:miter;stroke-opacity:1"
             xml:space="preserve"><tspan
               id="tspan5103"
               style="font-style:italic;font-variant:normal;font-weight:normal;font-stretch:normal;font-size:5.05084753px;line-height:125%;font-family:FreeSans;-inkscape-font-specification:'FreeSans, Italic';text-align:start;writing-mode:lr-tb;text-anchor:start"
               y="713.59589"
               x="506.05869"
               sodipodi:role="line">save/load</tspan><tspan
               id="tspan5101"
               style="font-style:italic;font-variant:normal;font-weight:normal;font-stretch:normal;font-size:5.05084753px;line-height:125%;font-family:FreeSans;-inkscape-font-specification:'FreeSans, Italic';text-align:start;writing-mode:lr-tb;text-anchor:start"
               y="719.90942"
               x="506.05869"
               sodipodi:role="line">publishing</tspan><tspan
               id="tspan5107"
               style="font-style:italic;font-variant:normal;font-weight:normal;font-stretch:normal;font-size:5.05084753px;line-height:125%;font-family:FreeSans;-inkscape-font-specification:'FreeSans, Italic';text-align:start;writing-mode:lr-tb;text-anchor:start"
               y="726.22302"
               x="506.05869"
               sodipodi:role="line">versioning</tspan></text>
          <text
             xml:space="preserve"
             style="font-style:normal;font-weight:normal;font-size:40.40678024px;line-height:125%;font-family:sans-serif;letter-spacing:0px;word-spacing:0px;fill:#000000;fill-opacity:1;stroke:none;stroke-width:1px;stroke-linecap:butt;stroke-linejoin:miter;stroke-opacity:1"
             x="382.38855"
             y="683.15192"
             id="text5097"
             sodipodi:linespacing="125%"><tspan
               sodipodi:role="line"
               x="382.38855"
               y="683.15192"
               style="font-style:italic;font-variant:normal;font-weight:normal;font-stretch:normal;font-size:5.05084753px;line-height:125%;font-family:FreeSans;-inkscape-font-specification:'FreeSans, Italic';text-align:start;writing-mode:lr-tb;text-anchor:start"
               id="tspan5099">object reflection</tspan></text>
          <rect
             style="fill:#e3dbdb;fill-opacity:1;fill-rule:evenodd;stroke:#000000;stroke-width:0.50444651px;stroke-linecap:butt;stroke-linejoin:miter;stroke-opacity:1"
             id="rect7980"
             width="56.802086"
             height="15.469284"
             x="215.73865"
             y="730.11188" />
          <text
             xml:space="preserve"
             style="font-style:normal;font-weight:normal;font-size:7.07173824px;line-height:125%;font-family:sans-serif;letter-spacing:0px;word-spacing:0px;fill:#000000;fill-opacity:1;stroke:none;stroke-width:1px;stroke-linecap:butt;stroke-linejoin:miter;stroke-opacity:1"
             x="231.00444"
             y="740.41498"
             id="text7982"
             sodipodi:linespacing="125%"><tspan
               sodipodi:role="line"
               id="tspan7984"
               x="231.00444"
               y="740.41498"
               style="font-style:normal;font-variant:normal;font-weight:normal;font-stretch:normal;font-family:FreeSans;-inkscape-font-specification:FreeSans">Network</tspan></text>
          <rect
             y="730.11188"
             x="295.73865"
             height="15.469284"
             width="56.802086"
             id="rect8017"
             style="fill:#e3dbdb;fill-opacity:1;fill-rule:evenodd;stroke:#000000;stroke-width:0.50444651px;stroke-linecap:butt;stroke-linejoin:miter;stroke-opacity:1" />
          <text
             sodipodi:linespacing="125%"
             id="text8019"
             y="740.41498"
             x="315.08252"
             style="font-style:normal;font-weight:normal;font-size:7.07173824px;line-height:125%;font-family:sans-serif;letter-spacing:0px;word-spacing:0px;fill:#000000;fill-opacity:1;stroke:none;stroke-width:1px;stroke-linecap:butt;stroke-linejoin:miter;stroke-opacity:1"
             xml:space="preserve"><tspan
               style="font-style:normal;font-variant:normal;font-weight:normal;font-stretch:normal;font-family:FreeSans;-inkscape-font-specification:FreeSans"
               y="740.41498"
               x="315.08252"
               id="tspan8021"
               sodipodi:role="line">Noise</tspan></text>
          <text
             xml:space="preserve"
             style="font-style:normal;font-weight:normal;font-size:40.40678024px;line-height:125%;font-family:sans-serif;letter-spacing:0px;word-spacing:0px;fill:#000000;fill-opacity:1;stroke:none;stroke-width:1px;stroke-linecap:butt;stroke-linejoin:miter;stroke-opacity:1"
             x="221.38786"
             y="753.59589"
             id="text8026"
             sodipodi:linespacing="125%"><tspan
               sodipodi:role="line"
               x="221.38786"
               y="753.59589"
               style="font-style:italic;font-variant:normal;font-weight:normal;font-stretch:normal;font-size:5.05084753px;line-height:125%;font-family:FreeSans;-inkscape-font-specification:'FreeSans, Italic';text-align:start;writing-mode:lr-tb;text-anchor:start"
               id="tspan8030">client/server netplay</tspan></text>
          <text
             sodipodi:linespacing="125%"
             id="text8034"
             y="753.59589"
             x="304.245"
             style="font-style:normal;font-weight:normal;font-size:40.40678024px;line-height:125%;font-family:sans-serif;letter-spacing:0px;word-spacing:0px;fill:#000000;fill-opacity:1;stroke:none;stroke-width:1px;stroke-linecap:butt;stroke-linejoin:miter;stroke-opacity:1"
             xml:space="preserve"><tspan
               id="tspan8036"
               style="font-style:italic;font-variant:normal;font-weight:normal;font-stretch:normal;font-size:5.05084753px;line-height:125%;font-family:FreeSans;-inkscape-font-specification:'FreeSans, Italic';text-align:start;writing-mode:lr-tb;text-anchor:start"
               y="753.59589"
               x="304.245"
               sodipodi:role="line">procedural content</tspan><tspan
               id="tspan8038"
               style="font-style:italic;font-variant:normal;font-weight:normal;font-stretch:normal;font-size:5.05084753px;line-height:125%;font-family:FreeSans;-inkscape-font-specification:'FreeSans, Italic';text-align:start;writing-mode:lr-tb;text-anchor:start"
               y="759.90942"
               x="304.245"
               sodipodi:role="line">generation</tspan></text>
          <path
             style="fill:none;fill-rule:evenodd;stroke:#000000;stroke-width:0.24918303;stroke-linecap:butt;stroke-linejoin:miter;stroke-miterlimit:4;stroke-dasharray:none;stroke-opacity:1"
             d="m 534.95916,482.78121 -0.0313,15.27348"
             id="path9541"
             inkscape:connector-type="polyline"
             inkscape:connector-curvature="0" />
          <circle
             r="1.2585644"
             cy="502.40701"
             cx="531.41406"
             id="circle9543"
             style="fill:#000000;fill-opacity:1;stroke-width:0.2;stroke-miterlimit:4;stroke-dasharray:none" />
          <circle
             style="fill:#000000;fill-opacity:1;stroke-width:0.2;stroke-miterlimit:4;stroke-dasharray:none"
             id="circle9545"
             cx="538.02155"
             cy="502.40701"
             r="1.2585644" />
          <circle
             r="1.2585644"
             cy="502.40701"
             cx="534.71777"
             id="circle9547"
             style="fill:#000000;fill-opacity:1;stroke-width:0.2;stroke-miterlimit:4;stroke-dasharray:none" />
          <text
             xml:space="preserve"
             style="font-style:normal;font-weight:normal;font-size:40.40678024px;line-height:125%;font-family:sans-serif;letter-spacing:0px;word-spacing:0px;fill:#000000;fill-opacity:1;stroke:none;stroke-width:1px;stroke-linecap:butt;stroke-linejoin:miter;stroke-opacity:1"
             x="515.64899"
             y="510.90756"
             id="text9549"
             sodipodi:linespacing="125%"><tspan
               sodipodi:role="line"
               x="515.64899"
               y="510.90756"
               style="font-style:italic;font-variant:normal;font-weight:normal;font-stretch:normal;font-size:5.05084753px;line-height:125%;font-family:FreeSans;-inkscape-font-specification:'FreeSans, Italic';text-align:start;writing-mode:lr-tb;text-anchor:start"
               id="tspan9551">operation-specific</tspan><tspan
               sodipodi:role="line"
               x="515.64899"
               y="517.22113"
               style="font-style:italic;font-variant:normal;font-weight:normal;font-stretch:normal;font-size:5.05084753px;line-height:125%;font-family:FreeSans;-inkscape-font-specification:'FreeSans, Italic';text-align:start;writing-mode:lr-tb;text-anchor:start"
               id="tspan9553">subclasses</tspan></text>
        </g>
      </g>
    </g>
  </g>
</svg>
